vivado/.Xil/Vivado-14468-DESKTOP-9HE5DLC/hw_ila_data_1/zip_work/waveform.vcd
$date
        2022-May-01 15:50:57
$end
$version
        Vivado v2019.2 (64-bit)
$end
$timescale
        1ps
$end
$scope module dut $end
$var reg 32 " design_1_i/system_ila_0/inst/net_slot_0_axis_tdata [31:0] $end
$var reg 4 B design_1_i/system_ila_0/inst/net_slot_0_axis_tkeep [3:0] $end
$var reg 1 F design_1_i/system_ila_0/inst/net_slot_0_axis_tvalid $end
$var reg 1 G design_1_i/system_ila_0/inst/net_slot_0_axis_tready $end
$var reg 1 H design_1_i/system_ila_0/inst/net_slot_0_axis_tlast $end
$var reg 32 I design_1_i/system_ila_0/inst/net_slot_1_axis_tdata [31:0] $end
$var reg 4 i design_1_i/system_ila_0/inst/net_slot_1_axis_tkeep [3:0] $end
$var reg 1 m design_1_i/system_ila_0/inst/net_slot_1_axis_tvalid $end
$var reg 1 n design_1_i/system_ila_0/inst/net_slot_1_axis_tready $end
$var reg 1 o design_1_i/system_ila_0/inst/net_slot_1_axis_tlast $end
$var reg 3 p Interface__i1_s0___axi_dma_0_M_AXIS_MM2S_ [2:0] $end
$var reg 3 s Interface__i1_s1___axis_data_fifo_1_M_AXIS_ [2:0] $end
$var reg 3 v T_Channel__i1_s0___axi_dma_0_M_AXIS_MM2S_ [2:0] $end
$var reg 3 y T_Channel__i1_s1___axis_data_fifo_1_M_AXIS_ [2:0] $end
$var reg 1 | _TRIGGER $end
$var reg 1 } _WINDOW $end
$var reg 1 ~ _GAP $end
$upscope $end
$enddefinitions $end
#0
$dumpvars
b1001000011011000101000001000111 "
b1111 B
0F
1G
0H
b1001000011011000101000001000111 I
b1111 i
0m
1n
1o
b0 p
b0 s
b0 v
b0 y
0|
1}
0~
$end
#1018
b11011011100101000010000011000 "
1F
b1 p
b1 v
#1019
b10001001000111110111011010000110 "
#1020
b10000010100010110010001001111100 "
#1021
b100011100000111000101000100010 "
#1022
b10001011001001001000010110001010 "
#1023
b10001010100011010010011010001000 "
#1024
b101010100011001000111100101000 "
b11011011100101000010000011000 I
1m
0o
b1 s
b1 y
1|
#1025
b10010000001001101000111010010001 "
b10001001000111110111011010000110 I
#1026
b10001111100101010010101110001010 "
b10000010100010110010001001111100 I
#1027
b101000100010101001000000100110 "
b100011100000111000101000100010 I
#1028
b10001100001000011000110010010010 "
b10001011001001001000010110001010 I
0n
b0 s
b0 y
#1029
b10001010100011010010010010001001 "
#1030
b101011100010011000101100101010 "
#1031
b10001000001011011000100010001001 "
#1032
b10000011100010000010110010000101 "
#1033
b101100100000101000011100101101 "
#1034
b10000101001011000111111010000111 "
#1035
b1111000100001010010101101111100 "
#1036
b100111011110111000100000101100 "
#1037
b10000110001001100111011110000110 "
#1038
b1110100100001100010001001110101 "
#1039
b11100011100011000011000011111 "
#1040
b10000111000110110111000010000101 "
#1041
b1110001100010000001110001110000 "
#1042
b11010011110011000110000100000 "
#1043
b10001011000111010111001110000110 "
#1044
b1111010100011000001111001111001 "
#1045
b11000100000001001000100100001 "
#1046
b10001101000111000111011110001000 "
#1047
b10000101100100110010000101111111 "
#1048
b11100100010011001001100100010 "
#1049
b10010001000111011000010110001111 "
#1050
b10001100100100110001111110001010 "
#1051
b11101100011001000111100011010 "
#1052
b10011000001000011000111110010010 "
#1053
b10010100100110000010000010010111 "
#1054
b100110100110111001111000101011 "
#1055
b10010100001000111001010110011010 "
#1056
b10010100100110000010011110010000 "
#1057
b100101100110101001110000101110 "
#1058
b10001101001000001001000110010011 "
#1059
b10010000100101000010011010001011 "
#1060
b101000100011111001001000101001 "
#1061
b10001111001001111000101110010010 "
#1062
b10000011100011100010010110001000 "
#1063
b100101100000011000111000100101 "
#1064
b10001111001001110111111010001111 "
#1065
b1111010100011110010100001111110 "
#1066
b101000011101001000100000100101 "
#1067
b10001001001001110111010010001010 "
#1068
b1110011100011010010101001110001 "
#1069
b101100011010101000010000100011 "
#1070
b10001101001010110111000010001110 "
#1071
b1101001100010010010011001101111 "
#1072
b100111011001111000100100101000 "
#1073
b10001011001010010110011010001000 "
#1074
b1101000100011000010101001100111 "
#1075
b101111011001111000101100101011 "
#1076
b10001111001011110110101110001111 "
#1077
b1100100100010100010011101101011 "
#1078
b101010011011001001010000110001 "
#1079
b10001010001000100110100010010011 "
#1080
b1100100100011100010001001100001 "
#1081
b11110011001011000111100100011 "
#1082
b10010011001000110110010010001110 "
#1083
b1101011100100110010000101101011 "
#1084
b100000011101011001110100101010 "
#1085
b10010111001001000110101110010011 "
#1086
b1111001101000010010111001101111 "
#1087
b100110011101011001110100101011 "
#1088
b10011011001010010111000010011000 "
#1089
b1111000100111010010110001110011 "
#1090
b110001011111101001100100110000 "
#1091
b10011100001101001000001010011001 "
#1092
b1111110100101010010110110000101 "
#1093
b110011100000101001100000110011 "
#1094
b10011011001101101000001010011000 "
#1095
b10000001100101110011001010000101 "
#1096
b111010011111101001010000110000 "
#1097
b10011010001110001000100010011110 "
#1098
b10000101100110110011100110000100 "
#1099
b1000000100011011010000101000000 "
#1100
b10100011010001001000110110100001 "
#1101
b10010010101001100100011110001111 "
#1102
b1000111100011101010001101000110 "
#1103
b10100110010010111000111110100100 "
#1104
b10010011101010000100110110010001 "
#1105
b1001011100100101010011001001101 "
#1106
b10100111010011001001000010100100 "
#1107
b10010110101010110101000010010010 "
#1108
b1001110100101011010101001001111 "
#1109
b10110000010110001001010010101001 "
#1110
b10011001101011110101101010011001 "
#1111
b1100110101000101011011101101000 "
#1112
b10110100011011011001110010110001 "
#1113
b10100010101100100111000110100000 "
#1114
b1110110101010001011000001110100 "
#1115
b10110001011110111010101110110000 "
#1116
b10101101101100010111111010101100 "
#1117
b10000000101010011011000001111101 "
#1118
b10101110100001001010100010101110 "
#1119
b10100111101011101000010110100111 "
#1120
b10001001101010101011001010001011 "
#1121
b10101010100001011010100010110000 "
#1122
b10011111101010011000010010100000 "
#1123
b10000011101000011010110010000100 "
#1124
b10101010011111111010000010101011 "
#1125
b10100001101011011000010110011101 "
#1126
b10001111101001001011001110001100 "
#1127
b10110001100011011010010110110011 "
#1128
b10100000101011101000101010100011 "
#1129
b10001101101000011011000110001100 "
#1130
b10101111100001111010001010110010 "
#1131
b10010101101001110111111110011101 "
#1132
b10000000100101001010100101111110 "
#1133
b10101011011111111001011010101011 "
#1134
b10001111101001100111101010010100 "
#1135
b1110100100010101010010001110101 "
#1136
b10100011011100111000100110100011 "
#1137
b10000101101000010111000110000111 "
#1138
b1110001100001101010001001110010 "
#1139
b10011111011011111000010110100001 "
#1140
b10000001100111010110110110000011 "
#1141
b1101000011111111001101101101010 "
#1142
b10010111011001000111110110011001 "
#1143
b1111010100101100110001101111011 "
#1144
b1011100011110001001010101011111 "
#1145
b10010100010111000111010110010010 "
#1146
b1111010100101110101111101110111 "
#1147
b1010100011101011001001001011000 "
#1148
b10001111010101010111000110001110 "
#1149
b1101111100100000101011101110010 "
#1150
b1011101011011001001001001011001 "
#1151
b10010111010111010110110010010101 "
#1152
b1101110100101110101101101101110 "
#1153
b1010110011011101001011101011011 "
#1154
b10010101010101000110110010010110 "
#1155
b1100110100100110100111001101000 "
#1156
b1001000011001011001001001001101 "
#1157
b10010000010001100110001110010001 "
#1158
b1100001100100010100010101100000 "
#1159
b1000110011000111001010001000101 "
#1160
b10010100010001010110010010010101 "
#1161
b1011101100100100100001001100001 "
#1162
b1000110010101111001001001000000 "
#1163
b10010100001111110101101110011001 "
#1164
b1010101100100110011110101010110 "
#1165
b111110010100011001000000110111 "
#1166
b10011010001110100101110010011100 "
#1167
b1010110100101100011010101011010 "
#1168
b111100010111011001111000111010 "
#1169
b10011111001110110101111110100000 "
#1170
b1011110100111110011101101011110 "
#1171
b111000011000011001111100111100 "
#1172
b10011010001110010101110110011011 "
#1173
b1100000100111100011100101011100 "
#1174
b101110010111101001110100110010 "
#1175
b10011110001100000101111010011110 "
#1176
b1100001100111000010111001100011 "
#1177
b110001011000111001101100101100 "
#1178
b10100011001101000110100010100000 "
#1179
b1101000100111100010111101101101 "
#1180
b110001011011011010001100110011 "
#1181
b10100101001101000110110110100011 "
#1182
b1110111101010000011010101110011 "
#1183
b110101011111001010100000110101 "
#1184
b10100111001101100111111110100111 "
#1185
b10000111101010010011100110000001 "
#1186
b111101100001111010011100111010 "
#1187
b10101001001111101000110010101001 "
#1188
b10010000101001110011110110001111 "
#1189
b1000111100101011010101001000001 "
#1190
b10101111010001101001111010101111 "
#1191
b10011111101011000100001110100000 "
#1192
b1000011101000011010101001000001 "
#1193
b10101110010001011010001110101100 "
#1194
b10100111101100000100011110100101 "
#1195
b111110101001001011000001000100 "
#1196
b10101001001111011001111010101010 "
#1197
b10100110101100010100100010011100 "
#1198
b1001010101001101010111001000111 "
#1199
b10101111010010111010100010101110 "
#1200
b10101001101011110100101110101001 "
#1201
b1001010101010101011000101001010 "
#1202
b10110001010010101010101010110001 "
#1203
b10101010101100010100101010101010 "
#1204
b1001101101001011010110001000101 "
#1205
b10110111010100001010110110110100 "
#1206
b10101100101100110100110010110000 "
#1207
b1001110101010101011000101001010 "
#1208
b10110111010100001010111010110101 "
#1209
b10101100101100110100101110110000 "
#1210
b1000101101011101011010101001101 "
#1211
b10101101010000001010100010101111 "
#1212
b10100111101011110100001010100101 "
#1213
b111001101010111011001101000110 "
#1214
b10100110001110011001111010100110 "
#1215
b10010110101000100011010010011101 "
#1216
b111000100111001010100000111000 "
#1217
b10101011001110001001100110101010 "
#1218
b10010011101010100011011010011000 "
#1219
b110000100011111010100000110010 "
#1220
b10100101001011101000101010100111 "
#1221
b10000101101001110010111010001000 "
#1222
b110010100000111010010100101100 "
#1223
b10101010001100001000100010101100 "
#1224
b1111110101001000010101010000100 "
#1225
b101111100000001010011000101100 "
#1226
b10101000001100001000001110101001 "
#1227
b10000100101001110010111110000101 "
#1228
b100111100001001010011000101110 "
#1229
b10100001001010010111110110011111 "
#1230
b1111111101001010010110001111110 "
#1231
b100100011110011010000100100111 "
#1232
b10011111001000110111001110011111 "
#1233
b1101011100110110010001101110001 "
#1234
b110010011010111001110000101001 "
#1235
b10100010001100010110111110100001 "
#1236
b1101000100111100010110001110000 "
#1237
b101010011000101001101100101000 "
#1238
b10011111001010100110001110011110 "
#1239
b1100000100111010010100001100010 "
#1240
b100110010110011001100000100110 "
#1241
b10010101001001110101100010011000 "
#1242
b1010001100101010010100001010101 "
#1243
b101110010100111001100000101101 "
#1244
b10011001001100100101000010011001 "
#1245
b1010010100111110011010101001110 "
#1246
b101010010100001001110000110000 "
#1247
b10011000001010110100101110010111 "
#1248
b1010000100111000010111101001100 "
#1249
b110000010011111001101100101110 "
#1250
b10100000001100110101000110011101 "
#1251
b1010100101000000011001101010100 "
#1252
b101100010100001001110000101111 "
#1253
b10010110001010010100110110011001 "
#1254
b1001011100101110010101001001010 "
#1255
b110000010011101001101000101101 "
#1256
b10011101001100000101000110011101 "
#1257
b1010001100110100010111001010001 "
#1258
b101110010101001001110000110000 "
#1259
b10011000001011010101010010011001 "
#1260
b1010101100110100010111101010011 "
#1261
b101110010110001001110000101111 "
#1262
b10011010001011010101011110011011 "
#1263
b1010110100110100010110101010110 "
#1264
b101011010110001001101000101100 "
#1265
b10011101001011110101011110011001 "
#1266
b1010110100110000010101001011011 "
#1267
b101100010111001001111100101110 "
#1268
b10100101001101000101101010011101 "
#1269
b1100101101001010011001101100010 "
#1270
b101100010111001001101100101001 "
#1271
b10011101001011000110001010011110 "
#1272
b1100001100110110010101001100011 "
#1273
b101101011000011001101100101010 "
#1274
b10100001001011000110010010011110 "
#1275
b1100010100111110010101001100100 "
#1276
b101101011001011010010000101111 "
#1277
b10100000001010100110001110100010 "
#1278
b1101000101000010010110001100101 "
#1279
b101101011011111010000100101110 "
#1280
b10100000001011110111000010011111 "
#1281
b1110111101000010011000101110100 "
#1282
b110111011110001010001000110110 "
#1283
b10100100001110000111100110100011 "
#1284
b1111000101000100011011001111010 "
#1285
b110100011101101001111100110101 "
#1286
b10100000001101100111010110011110 "
#1287
b1111001101000100011100001110111 "
#1288
b111100011110001010000100111001 "
#1289
b10100101001111010111101110100100 "
#1290
b1110010100110110011001101111100 "
#1291
b111011100001101010111101001001 "
#1292
b10100000001110100111100010100001 "
#1293
b1111101101001100011111001110111 "
#1294
b110111011110101001111100110110 "
#1295
b10100100001110100111110010100001 "
#1296
b10000000101001010011101101111111 "
#1297
b111011100000001010010100111011 "
#1298
b10100101001110111000000010100101 "
#1299
b10000001101001100011110010000000 "
#1300
b111110100010111010111101000101 "
#1301
b10100100001110101000010010101000 "
#1302
b10000101101010010011111110000000 "
#1303
b1000101100011001010110101000100 "
#1304
b10101100010000111000110110101110 "
#1305
b10001011101011000100001110001011 "
#1306
b111111100001101010011100111110 "
#1307
b10101001010000001000011110101000 "
#1308
b10000111101010000011111110001000 "
#1309
b111011100001001010010100111100 "
#1310
b10100100001110111000001110100100 "
#1311
b10000101101001100011110110000011 "
#1312
b111101100011101010111101000110 "
#1313
b10100001001110001000010110100110 "
#1314
b10000101101001100011110110000000 "
#1315
b111010100001101010011100111110 "
#1316
b10100011001110101000001010100011 "
#1317
b10001000101010010100000010000010 "
#1318
b110111100001101010100101000001 "
#1319
b10100000001110100111110010011111 "
#1320
b10000100101001110100000101111101 "
#1321
b1000000100000111010100001000001 "
#1322
b10100100001111111000001010100111 "
#1323
b1110111100111010011100001111110 "
#1324
b111111011111101010010001000001 "
#1325
b10100000001111110111110010100010 "
#1326
b1110111100111110011111001111000 "
#1327
b111111011101101010000000111110 "
#1328
b10011111001111110111011110100001 "
#1329
b1110100101000000011111001110110 "
#1330
b111001011011101001101000111000 "
#1331
b10100001001111010111000010011111 "
#1332
b1110011101000110011111101110001 "
#1333
b111011011100011010000100111101 "
#1334
b10011100001110010110111110011111 "
#1335
b1101001100110110011100001101010 "
#1336
b111010011010101001110000111011 "
#1337
b10011010001110110110100110011011 "
#1338
b1100110100110010011101001100111 "
#1339
b111011011001101001100100111010 "
#1340
b10011011001111010110011110011010 "
#1341
b1100101100110110011110101100101 "
#1342
b111100011001101001110000111100 "
#1343
b10011011001111000110011010011100 "
#1344
b1100111100110100011101101101000 "
#1345
b111000011001101001100100111010 "
#1346
b10010111001110100110010010010111 "
#1347
b1100100100101110011101001100100 "
#1348
b111000011000101001100000111010 "
#1349
b10010110001110010101111110010110 "
#1350
b1011110100110010011101101011111 "
#1351
b111000010111011001100000111010 "
#1352
b10011001001110110101101010010111 "
#1353
b1011111100111000011111101011001 "
#1354
b111100010110111001011000111100 "
#1355
b10010110001111010101110110010101 "
#1356
b1011111100101110011111001011110 "
#1357
b1000010011000001001100001000001 "
#1358
b10011010010000110110000110011001 "
#1359
b1100011100110110100010001100010 "
#1360
b111111010111011001010100111110 "
#1361
b10011010010000110101111010010110 "
#1362
b1100100100111000100010101100010 "
#1363
b1000001011000111001101101000100 "
#1364
b10011000010000010110000010011000 "
#1365
b1100010100110100100001101100000 "
#1366
b1000011011000011001100101000010 "
#1367
b10011000010000010110001010011010 "
#1368
b1011101100101010011111001100000 "
#1369
b111111010111001001010000111101 "
#1370
b10010101001111100101111010010110 "
#1371
b1011010100100100011101101011101 "
#1372
b1000001011000101001101001000011 "
#1373
b10011000010000010110000010011000 "
#1374
b1100100100111000100010101100000 "
#1375
b111100011001001001110001000101 "
#1376
b10010011001111000101101110010011 "
#1377
b1100110100111100100011101011011 "
#1378
b111110010111111001011101000000 "
#1379
b10010101001111100101110110010101 "
#1380
b1100000100110000100000101011101 "
#1381
b111101011000001001100001000001 "
#1382
b10010100001111010101110010010100 "
#1383
b1011110100101100011111101011100 "
#1384
b111110010111101001011000111111 "
#1385
b10010100001111010101110110010101 "
#1386
b1011101100101010011111001011100 "
#1387
b111110010111011001010100111110 "
#1388
b10010100001111010101110110010101 "
#1389
b1011010100101000011110101011100 "
#1390
b111101010110101001011000111110 "
#1391
b10010110001111010101011110010110 "
#1392
b1010111100101100011110101010111 "
#1393
b111011010101101001010100111100 "
#1394
b10010011001110100101010110010100 "
#1395
b1010011100100100011100101010100 "
#1396
b111010010101011001010000111011 "
#1397
b10010101001111000101010010010011 "
#1398
b1010111100101100011110101010110 "
#1399
b111111010101111001011000111101 "
#1400
b10010111001111100101100110011000 "
#1401
b1010011100100010011101101011000 "
#1402
b111111010100011001000100111011 "
#1403
b10010101010000100101001110010011 "
#1404
b1010011100100010011111001010111 "
#1405
b111110010011101000110000110111 "
#1406
b10010111010000110101010110010011 "
#1407
b1010101100100000011110001011100 "
#1408
b111010010110001001001000111101 "
#1409
b10010010001110110101010110001111 "
#1410
b1100010100110100100001101011010 "
#1411
b1000011011001011001110101000110 "
#1412
b10011000010000100110001010011010 "
#1413
b1100110100110100100010101100010 "
#1414
b1000100011010101001101001000110 "
#1415
b10010110010000110110101010010111 "
#1416
b1101011100110000100010101101001 "
#1417
b1000100011011001001011101000101 "
#1418
b10010110010001000110101110010110 "
#1419
b1101011100101100100010001101011 "
#1420
b1000100011100001001101001001000 "
#1421
b10010101010001000110110010010110 "
#1422
b1110001100110000100011101101110 "
#1423
b1001000011100101001011101000111 "
#1424
b10010110010001100111001110011000 "
#1425
b1101011100100100100000101110001 "
#1426
b1000101011011001001011101000101 "
#1427
b10011000010001010110101110011000 "
#1428
b1101010100101110100010001101011 "
#1429
b1000011011010011001011001000011 "
#1430
b10010111010001000110100110010110 "
#1431
b1101100100110010100011001101010 "
#1432
b1000110011001011001001000111111 "
#1433
b10010010001111110110110010011001 "
#1434
b1100111100101000100000101100101 "
#1435
b1001001011010001001010101000010 "
#1436
b10010101010000100110111110011100 "
#1437
b1101010100101110100010001101000 "
#1438
b1000110011010011001011001000011 "
#1439
b10010110010000110110110010011001 "
#1440
b1101011100110000100010101101001 "
#1441
b1000001011010111001100001000101 "
#1442
b10010111010001010110011110010100 "
#1443
b1101011100101100100010001101100 "
#1444
b1000100011010101001010001000010 "
#1445
b10010110010001000110110010010110 "
#1446
b1101010100101000100001001101100 "
#1447
b1000110011011011001010001000011 "
#1448
b10010111010001100111000010010111 "
#1449
b1101011100101010100001101110000 "
#1450
b1000010011011101001101101001000 "
#1451
b10010101010000100110011010010110 "
#1452
b1101001100101100100001101101000 "
#1453
b1000011011001101001001101000000 "
#1454
b10010111010000110110100110010110 "
#1455
b1011110100011100011101001100111 "
#1456
b111100011000111001010101000000 "
#1457
b10010001001111010101111110010001 "
#1458
b1100111100101000100000101100001 "
#1459
b111111011010001001001101000001 "
#1460
b10010100010001000110100110010000 "
#1461
b1110111100111010100101001101111 "
#1462
b1000111011011001001001000111101 "
#1463
b10011111010010000111011110011111 "
#1464
b1101110100101000011110101111001 "
#1465
b1001000011011101001010000111101 "
#1466
b10011111010010000111100110011111 "
#1467
b1101110100101000011110101111001 "
#1468
b1000110011110011001110001001000 "
#1469
b10011000010001000111011110011010 "
#1470
b1110110100110000100010001110110 "
#1471
b1000100011101101001100001000100 "
#1472
b10011001010001010111011010011000 "
#1473
b1111000100110100100010001110111 "
#1474
b1000000011110101001011101000011 "
#1475
b10011001010000110111100010010110 "
#1476
b1110111100101010011111101111011 "
#1477
b1000110100000011001111101000111 "
#1478
b10011101010000111000000010011110 "
#1479
b1110110100101000011101001111111 "
#1480
b1000101011111101001110001000010 "
#1481
b10011101010000001000000110011111 "
#1482
b10000000100111110100001001111110 "
#1483
b1000010100001111010011001001001 "
#1484
b10011010001111001000000010011111 "
#1485
b10000101101001000100011101111011 "
#1486
b1001001100000101010000001000110 "
#1487
b10100000010010001000001110100001 "
#1488
b10000001100111110100011110000010 "
#1489
b1000110100000001001111001000110 "
#1490
b10011101010001001000000010011110 "
#1491
b1111010100110110100001001111100 "
#1492
b111111100000111010010001001011 "
#1493
b10011001001111110111011110011000 "
#1494
b1111100100111110100010101110110 "
#1495
b1000001011110101001110101000011 "
#1496
b10011011010000010111100010011011 "
#1497
b1110110100110100100000001111000 "
#1498
b1000001011100101001011000111110 "
#1499
b10011000010000100111000110011001 "
#1500
b1101000100100110100000101110000 "
#1501
b1001001011001011001000101000100 "
#1502
b10010110010011010110010110010101 "
#1503
b1100000100101100100101101100100 "
#1504
b1001010010111101001010001001001 "
#1505
b10010000010000110101110110010101 "
#1506
b1010101100011100100000101010111 "
#1507
b1000111010111011001001101001000 "
#1508
b10001110010001100101110010010010 "
#1509
b1011110100100100100101001011010 "
#1510
b1000010010101101000101101000011 "
#1511
b10001011010001010101010110001010 "
#1512
b1011010100011110100100101010110 "
#1513
b1001000010110011001000101001010 "
#1514
b10001101010010010101011110001111 "
#1515
b1010111100011100100101001010110 "
#1516
b1001001010101111001000001001011 "
#1517
b10001011010001110101010110001110 "
#1518
b1010000100010010100010101010010 "
#1519
b1000101010011101000100101000101 "
#1520
b10001010010010000100111010001001 "
#1521
b1001111100010100100100001001111 "
#1522
b1001100010100011000110001001100 "
#1523
b10001100010011000101000110001100 "
#1524
b1001111100010100100101001010001 "
#1525
b1000111010011101000011001001001 "
#1526
b10000011010010010100110010000100 "
#1527
b1001101100001000100101001001100 "
#1528
b1001101010100001000010101001101 "
#1529
b10000101010011110101000010000101 "
#1530
b1010000100001010100111101010000 "
#1531
b1001111010100011000001101010000 "
#1532
b10000001010011100101000010000010 "
#1533
b1001111100000010100111001001111 "
#1534
b1001101010011010111111101001010 "
#1535
b10000101010100000101000010000010 "
#1536
b1010001100000110100111001010011 "
#1537
b1000110010011000111111001001001 "
#1538
b1111100010001110100100101111011 "
#1539
b1001100011111100100100101001010 "
#1540
b1001011010011101000000001001011 "
#1541
b10000000010010110100111010000000 "
#1542
b1001101011111110100101001001110 "
#1543
b1000111010010110111110101001000 "
#1544
b1111011010001100100101001111100 "
#1545
b1001001011110110100100001001001 "
#1546
b1001110010010100111110001001011 "
#1547
b1111110010011110100110001111101 "
#1548
b1001010011110110100110001001101 "
#1549
b1000011010001010111010101000101 "
#1550
b1110111010001110100001101110011 "
#1551
b1001101011111010100110101000111 "
#1552
b1000111010010100111100001001001 "
#1553
b1110110010001110100100001110110 "
#1554
b1001100011110100100101101001000 "
#1555
b1001010010011110111101001001100 "
#1556
b1111000010010100100110101111000 "
#1557
b1010000011110110100111001001101 "
#1558
b1001110010011100111011101001101 "
#1559
b1110100010011110100110101110110 "
#1560
b1001101011101010101000001001100 "
#1561
b1010000010011010111011101010001 "
#1562
b1110100010100000100110001110110 "
#1563
b1000111011100010100110101001010 "
#1564
b1010010010011010111011101010011 "
#1565
b1110100010100100100110001110110 "
#1566
b1001100011101010101001101001011 "
#1567
b1010011010011000111010101010011 "
#1568
b1110101010100110100110001110101 "
#1569
b1001100011101010101001101001100 "
#1570
b1010000010010100111010001010000 "
#1571
b1110100010100000100101001110100 "
#1572
b1001010011101000101000001001010 "
#1573
b1010000010010100111010001010000 "
#1574
b1110100010100000100101001110100 "
#1575
b1001010011101000101000001001010 "
#1576
b1010000010010010111001001010000 "
#1577
b1110010010100000100100101110010 "
#1578
b1001001011100100101000001001001 "
#1579
b1010000010010010111001001010000 "
#1580
b1110010010100100100100101110010 "
#1581
b1001001011100100101001001001001 "
#1582
b1010110010010100111001001010111 "
#1583
b1110010010101000100100101110001 "
#1584
b1001011011101000101011001001001 "
#1585
b1010100010010110111010001010110 "
#1586
b1110000010100100100100101110010 "
#1587
b1000111011100000101001001000111 "
#1588
b1011001010011000111010101010111 "
#1589
b1110110010110000100111001110111 "
#1590
b1001100011101010101011101001101 "
#1591
b1010111010011000111010101010111 "
#1592
b1110011010101010100110001110101 "
#1593
b1000110011011110101000101001010 "
#1594
b1010001010010100111000101010100 "
#1595
b1101101010100000100011101101110 "
#1596
b1001001011100000101001101000110 "
#1597
b1010000010010000110111101010010 "
#1598
b1101101010100000100011001101101 "
#1599
b1001010011100010101010001000110 "
#1600
b1010011010011010111010001010111 "
#1601
b1101100010011110100100101110000 "
#1602
b1000100011010110100111001000101 "
#1603
b1010011010001100110110101010000 "
#1604
b1110000010100110100100101110000 "
#1605
b1001001011100000101001101001001 "
#1606
b1010001010001010110111001010000 "
#1607
b1101111010100010100011001101111 "
#1608
b1000100011011010100111101000110 "
#1609
b1001110010000110110110001001110 "
#1610
b1101101010100000100001101101100 "
#1611
b1001001011100000101001101000110 "
#1612
b1001110010001110110111001010001 "
#1613
b1101010010011100100010001101011 "
#1614
b1001011011011110101001101000110 "
#1615
b1010000010011000111000001010100 "
#1616
b1101011010011110100100001101100 "
#1617
b1001000011011000101000001000111 "
1H
b10 v
#1618
0F
0H
b0 p
b0 v
