vivado/.Xil/Vivado-4552-DESKTOP-9HE5DLC/hw_ila_data_1/zip_work/waveform.vcd
$date
        2022-Apr-30 20:53:22
$end
$version
        Vivado v2019.2 (64-bit)
$end
$timescale
        1ps
$end
$scope module dut $end
$var reg 32 " design_1_i/Upsampling_Bayes_0/inst/s_axis_get_data [31:0] $end
$var reg 96 B design_1_i/Upsampling_Bayes_0/inst/pixel_high [95:0] $end
$var reg 24 D" design_1_i/Upsampling_Bayes_0/inst/pixel_low [23:0] $end
$var reg 1 \" design_1_i/Upsampling_Bayes_0/inst/axis_pixel_buffer_full $end
$var reg 1 ]" design_1_i/Upsampling_Bayes_0/inst/s_axis_empty $end
$var reg 1 ^" design_1_i/Upsampling_Bayes_0/inst/sr_busy $end
$var reg 1 _" design_1_i/Upsampling_Bayes_0/inst/sr_pin_en $end
$var reg 1 `" design_1_i/Upsampling_Bayes_0/inst/sr_pout_en $end
$var reg 1 a" _TRIGGER $end
$var reg 1 b" _WINDOW $end
$var reg 1 c" _GAP $end
$upscope $end
$enddefinitions $end
#0
$dumpvars
b1101111010100010100011001101111 "
b0 B
b0 D"
0\"
0]"
0^"
1_"
1`"
0a"
1b"
0c"
$end
#1
b1101010010011100100010001101011 "
#2
b1001011011011110101001101000110 "
1\"
#3
0\"
#4
b1001110010000110110110001001110 "
#5
b1010000010011000111000001010100 "
#6
b1101011010011110100100001101100 "
1\"
#7
0\"
#8
b1001001011100000101001101000110 "
#9
b1001000011011000101000001000111 "
#10
b1101111010100010100011001101111 "
1\"
#11
0\"
#12
b1101010010011100100010001101011 "
#13
b1001011011011110101001101000110 "
#14
b1001110010000110110110001001110 "
1\"
#15
0\"
#16
b1010000010011000111000001010100 "
#17
b1101011010011110100100001101100 "
#18
b1001001011100000101001101000110 "
1\"
#19
0\"
#20
b1001000011011000101000001000111 "
#21
b1101111010100010100011001101111 "
#22
b1101010010011100100010001101011 "
1\"
#23
0\"
#24
b1001011011011110101001101000110 "
#25
b1001110010000110110110001001110 "
#26
b1010000010011000111000001010100 "
1\"
#27
0\"
#28
b1101011010011110100100001101100 "
#29
b1001001011100000101001101000110 "
#30
b1001000011011000101000001000111 "
1\"
#31
0\"
#32
b1101111010100010100011001101111 "
#33
b1101010010011100100010001101011 "
#34
b1001011011011110101001101000110 "
1\"
#35
0\"
#36
b1001110010000110110110001001110 "
#37
b1010000010011000111000001010100 "
#38
b1101011010011110100100001101100 "
1\"
#39
0\"
#40
b1001001011100000101001101000110 "
#41
b1001000011011000101000001000111 "
#42
b1101111010100010100011001101111 "
1\"
#43
0\"
#44
b1101010010011100100010001101011 "
#45
b1001011011011110101001101000110 "
#46
b1001110010000110110110001001110 "
1\"
#47
0\"
#48
b1010000010011000111000001010100 "
#49
b1101011010011110100100001101100 "
#50
b1001001011100000101001101000110 "
1\"
#51
0\"
#52
b1001000011011000101000001000111 "
#53
b1101111010100010100011001101111 "
#54
b1101010010011100100010001101011 "
1\"
#55
0\"
#56
b1001011011011110101001101000110 "
#57
b1001110010000110110110001001110 "
#58
b1010000010011000111000001010100 "
1\"
#59
0\"
#60
b1101011010011110100100001101100 "
#61
b1001001011100000101001101000110 "
#62
b1001000011011000101000001000111 "
1\"
#63
0\"
#64
b1101111010100010100011001101111 "
#65
b1101010010011100100010001101011 "
#66
b1001011011011110101001101000110 "
1\"
#67
0\"
#68
b1001110010000110110110001001110 "
#69
b1010000010011000111000001010100 "
#70
b1101011010011110100100001101100 "
1\"
#71
0\"
#72
b1001001011100000101001101000110 "
#73
b1001000011011000101000001000111 "
#74
b1101111010100010100011001101111 "
1\"
#75
0\"
#76
b1101010010011100100010001101011 "
#77
b1001011011011110101001101000110 "
#78
b1001110010000110110110001001110 "
1\"
#79
0\"
#80
b1010000010011000111000001010100 "
#81
b1101011010011110100100001101100 "
#82
b1001001011100000101001101000110 "
1\"
#83
0\"
#84
b1001000011011000101000001000111 "
#85
b1101111010100010100011001101111 "
#86
b1101010010011100100010001101011 "
1\"
#87
0\"
#88
b1001011011011110101001101000110 "
#89
b1001110010000110110110001001110 "
#90
b1010000010011000111000001010100 "
1\"
#91
0\"
#92
b1101011010011110100100001101100 "
#93
b1001001011100000101001101000110 "
#94
b1001000011011000101000001000111 "
1\"
#95
0\"
#96
b1101111010100010100011001101111 "
#97
b1101010010011100100010001101011 "
#98
b1001011011011110101001101000110 "
1\"
#99
0\"
#100
b1001110010000110110110001001110 "
#101
b1010000010011000111000001010100 "
#102
b1101011010011110100100001101100 "
1\"
#103
0\"
#104
b1001001011100000101001101000110 "
#105
b1001000011011000101000001000111 "
#106
b1101111010100010100011001101111 "
1\"
#107
0\"
#108
b1101010010011100100010001101011 "
#109
b1001011011011110101001101000110 "
#110
b1001110010000110110110001001110 "
1\"
#111
0\"
#112
b1010000010011000111000001010100 "
#113
b1101011010011110100100001101100 "
#114
b1001001011100000101001101000110 "
1\"
#115
0\"
#116
b1001000011011000101000001000111 "
#117
b1101111010100010100011001101111 "
#118
b1101010010011100100010001101011 "
1\"
#119
0\"
#120
b1001011011011110101001101000110 "
#121
b1001110010000110110110001001110 "
#122
b1010000010011000111000001010100 "
1\"
#123
0\"
#124
b1101011010011110100100001101100 "
#125
b1001001011100000101001101000110 "
#126
b1001000011011000101000001000111 "
1\"
#127
0\"
#128
b1101111010100010100011001101111 "
#129
b1101010010011100100010001101011 "
#130
b1001011011011110101001101000110 "
1\"
#131
0\"
#132
b1001110010000110110110001001110 "
#133
b1010000010011000111000001010100 "
#134
b1101011010011110100100001101100 "
1\"
#135
0\"
#136
b1001001011100000101001101000110 "
#137
b1001000011011000101000001000111 "
#138
b1101111010100010100011001101111 "
1\"
#139
0\"
#140
b1101010010011100100010001101011 "
#141
b1001011011011110101001101000110 "
#142
b1001110010000110110110001001110 "
1\"
#143
0\"
#144
b1010000010011000111000001010100 "
#145
b1101011010011110100100001101100 "
#146
b1001001011100000101001101000110 "
1\"
#147
0\"
#148
b1001000011011000101000001000111 "
#149
b1101111010100010100011001101111 "
#150
b1101010010011100100010001101011 "
1\"
#151
0\"
#152
b1001011011011110101001101000110 "
#153
b1001110010000110110110001001110 "
#154
b1010000010011000111000001010100 "
1\"
#155
0\"
#156
b1101011010011110100100001101100 "
#157
b1001001011100000101001101000110 "
#158
b1001000011011000101000001000111 "
1\"
#159
0\"
#160
b1101111010100010100011001101111 "
#161
b1101010010011100100010001101011 "
#162
b1001011011011110101001101000110 "
1\"
#163
0\"
#164
b1001110010000110110110001001110 "
#165
b1010000010011000111000001010100 "
#166
b1101011010011110100100001101100 "
1\"
#167
0\"
#168
b1001001011100000101001101000110 "
#169
b1001000011011000101000001000111 "
#170
b1101111010100010100011001101111 "
1\"
#171
0\"
#172
b1101010010011100100010001101011 "
#173
b1001011011011110101001101000110 "
#174
b1001110010000110110110001001110 "
1\"
#175
0\"
#176
b1010000010011000111000001010100 "
#177
b1101011010011110100100001101100 "
#178
b1001001011100000101001101000110 "
1\"
#179
0\"
#180
b1001000011011000101000001000111 "
#181
b1101111010100010100011001101111 "
#182
b1101010010011100100010001101011 "
1\"
#183
0\"
#184
b1001011011011110101001101000110 "
#185
b1001110010000110110110001001110 "
#186
b1010000010011000111000001010100 "
1\"
#187
0\"
#188
b1101011010011110100100001101100 "
#189
b1001001011100000101001101000110 "
#190
b1001000011011000101000001000111 "
1\"
#191
0\"
#192
b1101111010100010100011001101111 "
#193
b1101010010011100100010001101011 "
#194
b1001011011011110101001101000110 "
1\"
#195
0\"
#196
b1001110010000110110110001001110 "
#197
b1010000010011000111000001010100 "
#198
b1101011010011110100100001101100 "
1\"
#199
0\"
#200
b1001001011100000101001101000110 "
#201
b1001000011011000101000001000111 "
#202
b1101111010100010100011001101111 "
1\"
#203
0\"
#204
b1101010010011100100010001101011 "
#205
b1001011011011110101001101000110 "
#206
b1001110010000110110110001001110 "
1\"
#207
0\"
#208
b1010000010011000111000001010100 "
#209
b1101011010011110100100001101100 "
#210
b1001001011100000101001101000110 "
1\"
#211
0\"
#212
b1001000011011000101000001000111 "
#213
b1101111010100010100011001101111 "
#214
b1101010010011100100010001101011 "
1\"
#215
0\"
#216
b1001011011011110101001101000110 "
#217
b1001110010000110110110001001110 "
#218
b1010000010011000111000001010100 "
1\"
#219
0\"
#220
b1101011010011110100100001101100 "
#221
b1001001011100000101001101000110 "
#222
b1001000011011000101000001000111 "
1\"
#223
0\"
#224
b1101111010100010100011001101111 "
#225
b1101010010011100100010001101011 "
#226
b1001011011011110101001101000110 "
1\"
#227
0\"
#228
b1001110010000110110110001001110 "
#229
b1010000010011000111000001010100 "
#230
b1101011010011110100100001101100 "
1\"
#231
0\"
#232
b1001001011100000101001101000110 "
#233
b1001000011011000101000001000111 "
#234
b1101111010100010100011001101111 "
1\"
#235
0\"
#236
b1101010010011100100010001101011 "
#237
b1001011011011110101001101000110 "
#238
b1001110010000110110110001001110 "
1\"
#239
0\"
#240
b1010000010011000111000001010100 "
#241
b1101011010011110100100001101100 "
#242
b1001001011100000101001101000110 "
1\"
#243
0\"
#244
b1001000011011000101000001000111 "
#245
b1101111010100010100011001101111 "
#246
b1101010010011100100010001101011 "
1\"
#247
0\"
#248
b1001011011011110101001101000110 "
#249
b1001110010000110110110001001110 "
#250
b1010000010011000111000001010100 "
1\"
#251
0\"
#252
b1101011010011110100100001101100 "
#253
b1001001011100000101001101000110 "
#254
b1001000011011000101000001000111 "
1\"
#255
0\"
#256
b1101111010100010100011001101111 "
#257
b1101010010011100100010001101011 "
#258
b1001011011011110101001101000110 "
1\"
#259
0\"
#260
b1001110010000110110110001001110 "
#261
b1010000010011000111000001010100 "
#262
b1101011010011110100100001101100 "
1\"
#263
0\"
#264
b1001001011100000101001101000110 "
#265
b1001000011011000101000001000111 "
#266
b1101111010100010100011001101111 "
1\"
#267
0\"
#268
b1101010010011100100010001101011 "
#269
b1001011011011110101001101000110 "
#270
b1001110010000110110110001001110 "
1\"
#271
0\"
#272
b1010000010011000111000001010100 "
#273
b1101011010011110100100001101100 "
#274
b1001001011100000101001101000110 "
1\"
#275
0\"
#276
b1001000011011000101000001000111 "
#277
b1101111010100010100011001101111 "
#278
b1101010010011100100010001101011 "
1\"
#279
0\"
#280
b1001011011011110101001101000110 "
#281
b1001110010000110110110001001110 "
#282
b1010000010011000111000001010100 "
1\"
#283
0\"
#284
b1101011010011110100100001101100 "
#285
b1001001011100000101001101000110 "
#286
b1001000011011000101000001000111 "
1\"
#287
0\"
#288
b1101111010100010100011001101111 "
#289
b1101010010011100100010001101011 "
#290
b1001011011011110101001101000110 "
1\"
#291
0\"
#292
b1001110010000110110110001001110 "
#293
b1010000010011000111000001010100 "
#294
b1101011010011110100100001101100 "
1\"
#295
0\"
#296
b1001001011100000101001101000110 "
#297
b1001000011011000101000001000111 "
#298
b1101111010100010100011001101111 "
1\"
#299
0\"
#300
b1101010010011100100010001101011 "
#301
b1001011011011110101001101000110 "
#302
b1001110010000110110110001001110 "
1\"
#303
0\"
#304
b1010000010011000111000001010100 "
#305
b1101011010011110100100001101100 "
#306
b1001001011100000101001101000110 "
1\"
#307
0\"
#308
b1001000011011000101000001000111 "
#309
b1101111010100010100011001101111 "
#310
b1101010010011100100010001101011 "
1\"
#311
0\"
#312
b1001011011011110101001101000110 "
#313
b1001110010000110110110001001110 "
#314
b1010000010011000111000001010100 "
1\"
#315
0\"
#316
b1101011010011110100100001101100 "
#317
b1001001011100000101001101000110 "
#318
b1001000011011000101000001000111 "
1\"
#319
0\"
#320
b1101111010100010100011001101111 "
#321
b1101010010011100100010001101011 "
#322
b1001011011011110101001101000110 "
1\"
#323
0\"
#324
b1001110010000110110110001001110 "
#325
b1010000010011000111000001010100 "
#326
b1101011010011110100100001101100 "
1\"
#327
0\"
#328
b1001001011100000101001101000110 "
#329
b1001000011011000101000001000111 "
#330
b1101111010100010100011001101111 "
1\"
#331
0\"
#332
b1101010010011100100010001101011 "
#333
b1001011011011110101001101000110 "
#334
b1001110010000110110110001001110 "
1\"
#335
0\"
#336
b1010000010011000111000001010100 "
#337
b1101011010011110100100001101100 "
#338
b1001001011100000101001101000110 "
1\"
#339
0\"
#340
b1001000011011000101000001000111 "
#341
b1101111010100010100011001101111 "
#342
b1101010010011100100010001101011 "
1\"
#343
0\"
#344
b1001011011011110101001101000110 "
#345
b1001110010000110110110001001110 "
#346
b1010000010011000111000001010100 "
1\"
#347
0\"
#348
b1101011010011110100100001101100 "
#349
b1001001011100000101001101000110 "
#350
b1001000011011000101000001000111 "
1\"
#351
0\"
#352
b1101111010100010100011001101111 "
#353
b1101010010011100100010001101011 "
#354
b1001011011011110101001101000110 "
1\"
#355
0\"
#356
b1001110010000110110110001001110 "
#357
b1010000010011000111000001010100 "
#358
b1101011010011110100100001101100 "
1\"
#359
0\"
#360
b1001001011100000101001101000110 "
#361
b1001000011011000101000001000111 "
#362
b1101111010100010100011001101111 "
1\"
#363
0\"
#364
b1101010010011100100010001101011 "
#365
b1001011011011110101001101000110 "
#366
b1001110010000110110110001001110 "
1\"
#367
0\"
#368
b1010000010011000111000001010100 "
#369
b1101011010011110100100001101100 "
#370
b1001001011100000101001101000110 "
1\"
#371
0\"
#372
b1001000011011000101000001000111 "
#373
b1101111010100010100011001101111 "
#374
b1101010010011100100010001101011 "
1\"
#375
0\"
#376
b1001011011011110101001101000110 "
#377
b1001110010000110110110001001110 "
#378
b1010000010011000111000001010100 "
1\"
#379
0\"
#380
b1101011010011110100100001101100 "
#381
b1001001011100000101001101000110 "
#382
b1001000011011000101000001000111 "
1\"
#383
0\"
#384
b1101111010100010100011001101111 "
#385
b1101010010011100100010001101011 "
#386
b1001011011011110101001101000110 "
1\"
#387
0\"
#388
b1001110010000110110110001001110 "
#389
b1010000010011000111000001010100 "
#390
b1101011010011110100100001101100 "
1\"
#391
0\"
#392
b1001001011100000101001101000110 "
#393
b1001000011011000101000001000111 "
#394
b1101111010100010100011001101111 "
1\"
#395
0\"
#396
b1101010010011100100010001101011 "
#397
b1001011011011110101001101000110 "
#398
b1001110010000110110110001001110 "
1\"
#399
0\"
#400
b1010000010011000111000001010100 "
#401
b1101011010011110100100001101100 "
#402
b1001001011100000101001101000110 "
1\"
#403
0\"
#404
b1001000011011000101000001000111 "
#405
b1101111010100010100011001101111 "
#406
b1101010010011100100010001101011 "
1\"
#407
0\"
#408
b1001011011011110101001101000110 "
#409
b1001110010000110110110001001110 "
#410
b1010000010011000111000001010100 "
1\"
#411
0\"
#412
b1101011010011110100100001101100 "
#413
b1001001011100000101001101000110 "
#414
b1001000011011000101000001000111 "
1\"
#415
0\"
#416
b1101111010100010100011001101111 "
#417
b1101010010011100100010001101011 "
#418
b1001011011011110101001101000110 "
1\"
#419
0\"
#420
b1001110010000110110110001001110 "
#421
b1010000010011000111000001010100 "
#422
b1101011010011110100100001101100 "
1\"
#423
0\"
#424
b1001001011100000101001101000110 "
#425
b1001000011011000101000001000111 "
#426
b1101111010100010100011001101111 "
1\"
#427
0\"
#428
b1101010010011100100010001101011 "
#429
b1001011011011110101001101000110 "
#430
b1001110010000110110110001001110 "
1\"
#431
0\"
#432
b1010000010011000111000001010100 "
#433
b1101011010011110100100001101100 "
#434
b1001001011100000101001101000110 "
1\"
#435
0\"
#436
b1001000011011000101000001000111 "
#437
b1101111010100010100011001101111 "
#438
b1101010010011100100010001101011 "
1\"
#439
0\"
#440
b1001011011011110101001101000110 "
#441
b1001110010000110110110001001110 "
#442
b1010000010011000111000001010100 "
1\"
#443
0\"
#444
b1101011010011110100100001101100 "
#445
b1001001011100000101001101000110 "
#446
b1001000011011000101000001000111 "
1\"
#447
0\"
#448
b1101111010100010100011001101111 "
#449
b1101010010011100100010001101011 "
#450
b1001011011011110101001101000110 "
1\"
#451
0\"
#452
b1001110010000110110110001001110 "
#453
b1010000010011000111000001010100 "
#454
b1101011010011110100100001101100 "
1\"
#455
0\"
#456
b1001001011100000101001101000110 "
#457
b1001000011011000101000001000111 "
#458
b1101111010100010100011001101111 "
1\"
#459
0\"
#460
b1101010010011100100010001101011 "
#461
b1001011011011110101001101000110 "
#462
b1001110010000110110110001001110 "
1\"
#463
0\"
#464
b1010000010011000111000001010100 "
#465
b1101011010011110100100001101100 "
#466
b1001001011100000101001101000110 "
1\"
#467
0\"
#468
b1001000011011000101000001000111 "
#469
b1101111010100010100011001101111 "
#470
b1101010010011100100010001101011 "
1\"
#471
0\"
#472
b1001011011011110101001101000110 "
#473
b1001110010000110110110001001110 "
#474
b1010000010011000111000001010100 "
1\"
#475
0\"
#476
b1101011010011110100100001101100 "
#477
b1001001011100000101001101000110 "
#478
b1001000011011000101000001000111 "
1\"
#479
0\"
#480
b1101111010100010100011001101111 "
#481
b1101010010011100100010001101011 "
#482
b1001011011011110101001101000110 "
1\"
#483
0\"
#484
b1001110010000110110110001001110 "
#485
b1010000010011000111000001010100 "
#486
b1101011010011110100100001101100 "
1\"
#487
0\"
#488
b1001001011100000101001101000110 "
#489
b1001000011011000101000001000111 "
#490
b1101111010100010100011001101111 "
1\"
#491
0\"
#492
b1101010010011100100010001101011 "
#493
b1001011011011110101001101000110 "
#494
b1001110010000110110110001001110 "
1\"
#495
0\"
#496
b1010000010011000111000001010100 "
#497
b1101011010011110100100001101100 "
#498
b1001001011100000101001101000110 "
1\"
#499
0\"
#500
b1001000011011000101000001000111 "
#501
b1101111010100010100011001101111 "
#502
b1101010010011100100010001101011 "
1\"
#503
0\"
#504
b1001011011011110101001101000110 "
#505
b1001110010000110110110001001110 "
#506
b1010000010011000111000001010100 "
1\"
#507
0\"
#508
b1101011010011110100100001101100 "
#509
b1001001011100000101001101000110 "
#510
b1001000011011000101000001000111 "
1\"
#511
0\"
#512
b1101111010100010100011001101111 "
#513
b1101010010011100100010001101011 "
#514
b1001011011011110101001101000110 "
1\"
#515
0\"
#516
b1001110010000110110110001001110 "
#517
b1010000010011000111000001010100 "
#518
b1101011010011110100100001101100 "
1\"
#519
0\"
#520
b1001001011100000101001101000110 "
#521
b1001000011011000101000001000111 "
#522
b1101111010100010100011001101111 "
1\"
#523
0\"
#524
b1101010010011100100010001101011 "
#525
b1001011011011110101001101000110 "
#526
b1001110010000110110110001001110 "
1\"
#527
0\"
#528
b1010000010011000111000001010100 "
#529
b1101011010011110100100001101100 "
#530
b1001001011100000101001101000110 "
1\"
#531
0\"
#532
b1001000011011000101000001000111 "
#533
b1101111010100010100011001101111 "
#534
b1101010010011100100010001101011 "
1\"
#535
0\"
#536
b1001011011011110101001101000110 "
#537
b1001110010000110110110001001110 "
#538
b1010000010011000111000001010100 "
1\"
#539
0\"
#540
b1101011010011110100100001101100 "
#541
b1001001011100000101001101000110 "
#542
b1001000011011000101000001000111 "
1\"
#543
0\"
#544
b1101111010100010100011001101111 "
#545
b1101010010011100100010001101011 "
#546
b1001011011011110101001101000110 "
1\"
#547
0\"
#548
b1001110010000110110110001001110 "
#549
b1010000010011000111000001010100 "
#550
b1101011010011110100100001101100 "
1\"
#551
0\"
#552
b1001001011100000101001101000110 "
#553
b1001000011011000101000001000111 "
#554
b1101111010100010100011001101111 "
1\"
#555
0\"
#556
b1101010010011100100010001101011 "
#557
b1001011011011110101001101000110 "
#558
b1001110010000110110110001001110 "
1\"
#559
0\"
#560
b1010000010011000111000001010100 "
#561
b1101011010011110100100001101100 "
#562
b1001001011100000101001101000110 "
1\"
#563
0\"
#564
b1001000011011000101000001000111 "
#565
b1101111010100010100011001101111 "
#566
b1101010010011100100010001101011 "
1\"
#567
0\"
#568
b1001011011011110101001101000110 "
#569
b1001110010000110110110001001110 "
#570
b1010000010011000111000001010100 "
1\"
#571
0\"
#572
b1101011010011110100100001101100 "
#573
b1001001011100000101001101000110 "
#574
b1001000011011000101000001000111 "
1\"
#575
0\"
#576
b1101111010100010100011001101111 "
#577
b1101010010011100100010001101011 "
#578
b1001011011011110101001101000110 "
1\"
#579
0\"
#580
b1001110010000110110110001001110 "
#581
b1010000010011000111000001010100 "
#582
b1101011010011110100100001101100 "
1\"
#583
0\"
#584
b1001001011100000101001101000110 "
#585
b1001000011011000101000001000111 "
#586
b1101111010100010100011001101111 "
1\"
#587
0\"
#588
b1101010010011100100010001101011 "
#589
b1001011011011110101001101000110 "
#590
b1001110010000110110110001001110 "
1\"
#591
0\"
#592
b1010000010011000111000001010100 "
#593
b1101011010011110100100001101100 "
#594
b1001001011100000101001101000110 "
1\"
#595
0\"
#596
b1001000011011000101000001000111 "
#597
b1101111010100010100011001101111 "
#598
b1101010010011100100010001101011 "
1\"
#599
0\"
#600
b1001011011011110101001101000110 "
#601
b1001110010000110110110001001110 "
#602
b1010000010011000111000001010100 "
1\"
#603
0\"
#604
b1101011010011110100100001101100 "
#605
b1001001011100000101001101000110 "
#606
b1001000011011000101000001000111 "
1\"
#607
0\"
#608
b1101111010100010100011001101111 "
#609
b1101010010011100100010001101011 "
#610
b1001011011011110101001101000110 "
1\"
#611
0\"
#612
b1001110010000110110110001001110 "
#613
b1010000010011000111000001010100 "
#614
b1101011010011110100100001101100 "
1\"
#615
0\"
#616
b1001001011100000101001101000110 "
#617
b1001000011011000101000001000111 "
#618
b1101111010100010100011001101111 "
1\"
#619
0\"
#620
b1101010010011100100010001101011 "
#621
b1001011011011110101001101000110 "
#622
b1001110010000110110110001001110 "
1\"
#623
0\"
#624
b1010000010011000111000001010100 "
#625
b1101011010011110100100001101100 "
#626
b1001001011100000101001101000110 "
1\"
#627
0\"
#628
b1001000011011000101000001000111 "
#629
b1101111010100010100011001101111 "
#630
b1101010010011100100010001101011 "
1\"
#631
0\"
#632
b1001011011011110101001101000110 "
#633
b1001110010000110110110001001110 "
#634
b1010000010011000111000001010100 "
1\"
#635
0\"
#636
b1101011010011110100100001101100 "
#637
b1001001011100000101001101000110 "
#638
b1001000011011000101000001000111 "
1\"
#639
0\"
#640
b1101111010100010100011001101111 "
#641
b1101010010011100100010001101011 "
#642
b1001011011011110101001101000110 "
1\"
#643
0\"
#644
b1001110010000110110110001001110 "
#645
b1010000010011000111000001010100 "
#646
b1101011010011110100100001101100 "
1\"
#647
0\"
#648
b1001001011100000101001101000110 "
#649
b1001000011011000101000001000111 "
#650
b1101111010100010100011001101111 "
1\"
#651
0\"
#652
b1101010010011100100010001101011 "
#653
b1001011011011110101001101000110 "
#654
b1001110010000110110110001001110 "
1\"
#655
0\"
#656
b1010000010011000111000001010100 "
#657
b1101011010011110100100001101100 "
#658
b1001001011100000101001101000110 "
1\"
#659
0\"
#660
b1001000011011000101000001000111 "
#661
b1101111010100010100011001101111 "
#662
b1101010010011100100010001101011 "
1\"
#663
0\"
#664
b1001011011011110101001101000110 "
#665
b1001110010000110110110001001110 "
#666
b1010000010011000111000001010100 "
1\"
#667
0\"
#668
b1101011010011110100100001101100 "
#669
b1001001011100000101001101000110 "
#670
b1001000011011000101000001000111 "
1\"
#671
0\"
#672
b1101111010100010100011001101111 "
#673
b1101010010011100100010001101011 "
#674
b1001011011011110101001101000110 "
1\"
#675
0\"
#676
b1001110010000110110110001001110 "
#677
b1010000010011000111000001010100 "
#678
b1101011010011110100100001101100 "
1\"
#679
0\"
#680
b1001001011100000101001101000110 "
#681
b1001000011011000101000001000111 "
#682
b1101111010100010100011001101111 "
1\"
#683
0\"
#684
b1101010010011100100010001101011 "
#685
b1001011011011110101001101000110 "
#686
b1001110010000110110110001001110 "
1\"
#687
0\"
#688
b1010000010011000111000001010100 "
#689
b1101011010011110100100001101100 "
#690
b1001001011100000101001101000110 "
1\"
#691
0\"
#692
b1001000011011000101000001000111 "
#693
b1101111010100010100011001101111 "
#694
b1101010010011100100010001101011 "
1\"
#695
0\"
#696
b1001011011011110101001101000110 "
#697
b1001110010000110110110001001110 "
#698
b1010000010011000111000001010100 "
1\"
#699
0\"
#700
b1101011010011110100100001101100 "
#701
b1001001011100000101001101000110 "
#702
b1001000011011000101000001000111 "
1\"
#703
0\"
#704
b1101111010100010100011001101111 "
#705
b1101010010011100100010001101011 "
#706
b1001011011011110101001101000110 "
1\"
#707
0\"
#708
b1001110010000110110110001001110 "
#709
b1010000010011000111000001010100 "
#710
b1101011010011110100100001101100 "
1\"
#711
0\"
#712
b1001001011100000101001101000110 "
#713
b1001000011011000101000001000111 "
#714
b1101111010100010100011001101111 "
1\"
#715
0\"
#716
b1101010010011100100010001101011 "
#717
b1001011011011110101001101000110 "
#718
b1001110010000110110110001001110 "
1\"
#719
0\"
#720
b1010000010011000111000001010100 "
#721
b1101011010011110100100001101100 "
#722
b1001001011100000101001101000110 "
1\"
#723
0\"
#724
b1001000011011000101000001000111 "
#725
b1101111010100010100011001101111 "
#726
b1101010010011100100010001101011 "
1\"
#727
0\"
#728
b1001011011011110101001101000110 "
#729
b1001110010000110110110001001110 "
#730
b1010000010011000111000001010100 "
1\"
#731
0\"
#732
b1101011010011110100100001101100 "
#733
b1001001011100000101001101000110 "
#734
b1001000011011000101000001000111 "
1\"
#735
0\"
#736
b1101111010100010100011001101111 "
#737
b1101010010011100100010001101011 "
#738
b1001011011011110101001101000110 "
1\"
#739
0\"
#740
b1001110010000110110110001001110 "
#741
b1010000010011000111000001010100 "
#742
b1101011010011110100100001101100 "
1\"
#743
0\"
#744
b1001001011100000101001101000110 "
#745
b1001000011011000101000001000111 "
#746
b1101111010100010100011001101111 "
1\"
#747
0\"
#748
b1101010010011100100010001101011 "
#749
b1001011011011110101001101000110 "
#750
b1001110010000110110110001001110 "
1\"
#751
0\"
#752
b1010000010011000111000001010100 "
#753
b1101011010011110100100001101100 "
#754
b1001001011100000101001101000110 "
1\"
#755
0\"
#756
b1001000011011000101000001000111 "
#757
b1101111010100010100011001101111 "
#758
b1101010010011100100010001101011 "
1\"
#759
0\"
#760
b1001011011011110101001101000110 "
#761
b1001110010000110110110001001110 "
#762
b1010000010011000111000001010100 "
1\"
#763
0\"
#764
b1101011010011110100100001101100 "
#765
b1001001011100000101001101000110 "
#766
b1001000011011000101000001000111 "
1\"
#767
0\"
#768
b1101111010100010100011001101111 "
#769
b1101010010011100100010001101011 "
#770
b1001011011011110101001101000110 "
1\"
#771
0\"
#772
b1001110010000110110110001001110 "
#773
b1010000010011000111000001010100 "
#774
b1101011010011110100100001101100 "
1\"
#775
0\"
#776
b1001001011100000101001101000110 "
#777
b1001000011011000101000001000111 "
#778
b1101111010100010100011001101111 "
1\"
#779
0\"
#780
b1101010010011100100010001101011 "
#781
b1001011011011110101001101000110 "
#782
b1001110010000110110110001001110 "
1\"
#783
0\"
#784
b1010000010011000111000001010100 "
#785
b1101011010011110100100001101100 "
#786
b1001001011100000101001101000110 "
1\"
#787
0\"
#788
b1001000011011000101000001000111 "
#789
b1101111010100010100011001101111 "
#790
b1101010010011100100010001101011 "
1\"
#791
0\"
#792
b1001011011011110101001101000110 "
#793
b1001110010000110110110001001110 "
#794
b1010000010011000111000001010100 "
1\"
#795
0\"
#796
b1101011010011110100100001101100 "
#797
b1001001011100000101001101000110 "
#798
b1001000011011000101000001000111 "
1\"
#799
0\"
#800
b1101111010100010100011001101111 "
#801
b1101010010011100100010001101011 "
#802
b1001011011011110101001101000110 "
1\"
#803
0\"
#804
b1001110010000110110110001001110 "
#805
b1010000010011000111000001010100 "
#806
b1101011010011110100100001101100 "
1\"
#807
0\"
#808
b1001001011100000101001101000110 "
#809
b1001000011011000101000001000111 "
#810
b1101111010100010100011001101111 "
1\"
#811
0\"
#812
b1101010010011100100010001101011 "
#813
b1001011011011110101001101000110 "
#814
b1001110010000110110110001001110 "
1\"
#815
0\"
#816
b1010000010011000111000001010100 "
#817
b1101011010011110100100001101100 "
#818
b1001001011100000101001101000110 "
1\"
#819
0\"
#820
b1001000011011000101000001000111 "
#821
b1101111010100010100011001101111 "
#822
b1101010010011100100010001101011 "
1\"
#823
0\"
#824
b1001011011011110101001101000110 "
#825
b1001110010000110110110001001110 "
#826
b1010000010011000111000001010100 "
1\"
#827
0\"
#828
b1101011010011110100100001101100 "
#829
b1001001011100000101001101000110 "
#830
b1001000011011000101000001000111 "
1\"
#831
0\"
#832
b1101111010100010100011001101111 "
#833
b1101010010011100100010001101011 "
#834
b1001011011011110101001101000110 "
1\"
#835
0\"
#836
b1001110010000110110110001001110 "
#837
b1010000010011000111000001010100 "
#838
b1101011010011110100100001101100 "
1\"
#839
0\"
#840
b1001001011100000101001101000110 "
#841
b1001000011011000101000001000111 "
#842
b1101111010100010100011001101111 "
1\"
#843
0\"
#844
b1101010010011100100010001101011 "
#845
b1001011011011110101001101000110 "
#846
b1001110010000110110110001001110 "
1\"
#847
0\"
#848
b1010000010011000111000001010100 "
#849
b1101011010011110100100001101100 "
#850
b1001001011100000101001101000110 "
1\"
#851
0\"
#852
b1001000011011000101000001000111 "
#853
b1101111010100010100011001101111 "
#854
b1101010010011100100010001101011 "
1\"
#855
0\"
#856
b1001011011011110101001101000110 "
#857
b1001110010000110110110001001110 "
#858
b1010000010011000111000001010100 "
1\"
#859
0\"
#860
b1101011010011110100100001101100 "
#861
b1001001011100000101001101000110 "
#862
b1001000011011000101000001000111 "
1\"
#863
0\"
#864
b1101111010100010100011001101111 "
#865
b1101010010011100100010001101011 "
#866
b1001011011011110101001101000110 "
1\"
#867
0\"
#868
b1001110010000110110110001001110 "
#869
b1010000010011000111000001010100 "
#870
b1101011010011110100100001101100 "
1\"
#871
0\"
#872
b1001001011100000101001101000110 "
#873
b1001000011011000101000001000111 "
#874
b1101111010100010100011001101111 "
1\"
#875
0\"
#876
b1101010010011100100010001101011 "
#877
b1001011011011110101001101000110 "
#878
b1001110010000110110110001001110 "
1\"
#879
0\"
#880
b1010000010011000111000001010100 "
#881
b1101011010011110100100001101100 "
#882
b1001001011100000101001101000110 "
1\"
#883
0\"
#884
b1001000011011000101000001000111 "
#885
b1101111010100010100011001101111 "
