vivado/.Xil/Vivado-5688-DESKTOP-9HE5DLC/hw_ila_data_1/zip_work/waveform.vcd
$date
        2022-May-01 21:34:32
$end
$version
        Vivado v2019.2 (64-bit)
$end
$timescale
        1ps
$end
$scope module dut $end
$var reg 32 " design_1_i/system_ila_0/inst/net_slot_0_axis_tdata [31:0] $end
$var reg 4 B design_1_i/system_ila_0/inst/net_slot_0_axis_tkeep [3:0] $end
$var reg 1 F design_1_i/system_ila_0/inst/net_slot_0_axis_tvalid $end
$var reg 1 G design_1_i/system_ila_0/inst/net_slot_0_axis_tready $end
$var reg 1 H design_1_i/system_ila_0/inst/net_slot_0_axis_tlast $end
$var reg 32 I design_1_i/system_ila_0/inst/net_slot_1_axis_tdata [31:0] $end
$var reg 4 i design_1_i/system_ila_0/inst/net_slot_1_axis_tstrb [3:0] $end
$var reg 1 m design_1_i/system_ila_0/inst/net_slot_1_axis_tvalid $end
$var reg 1 n design_1_i/system_ila_0/inst/net_slot_1_axis_tready $end
$var reg 1 o design_1_i/system_ila_0/inst/net_slot_1_axis_tlast $end
$var reg 32 p design_1_i/system_ila_0/inst/net_slot_2_axis_tdata [31:0] $end
$var reg 4 2" design_1_i/system_ila_0/inst/net_slot_2_axis_tstrb [3:0] $end
$var reg 1 6" design_1_i/system_ila_0/inst/net_slot_2_axis_tvalid $end
$var reg 1 7" design_1_i/system_ila_0/inst/net_slot_2_axis_tready $end
$var reg 1 8" design_1_i/system_ila_0/inst/net_slot_2_axis_tlast $end
$var reg 3 9" Interface__i1_s0___axis_data_fifo_0_M_AXIS_ [2:0] $end
$var reg 3 <" Interface__i1_s1___axis_data_fifo_1_M_AXIS_ [2:0] $end
$var reg 3 ?" Interface__i1_s2___Upsampling_Bayes_0_m00_axis1_ [2:0] $end
$var reg 3 B" T_Channel__i1_s0___axis_data_fifo_0_M_AXIS_ [2:0] $end
$var reg 3 E" T_Channel__i1_s1___axis_data_fifo_1_M_AXIS_ [2:0] $end
$var reg 3 H" T_Channel__i1_s2___Upsampling_Bayes_0_m00_axis1_ [2:0] $end
$var reg 1 K" _TRIGGER $end
$var reg 1 L" _WINDOW $end
$var reg 1 M" _GAP $end
$upscope $end
$enddefinitions $end
#0
$dumpvars
b0 "
b0 B
0F
0G
0H
b0 I
b0 i
0m
1n
0o
b0 p
b1111 2"
06"
17"
08"
b0 9"
b0 <"
b0 ?"
b0 B"
b0 E"
b0 H"
0K"
1L"
0M"
$end
#504
b11011011100101000010000011000 "
b1111 B
1F
#505
1G
b1 9"
b1 B"
#506
b10001001000111110111011010000110 "
#507
b10000010100010110010001001111100 "
#508
b100011100000111000101000100010 "
#509
b10001011001001001000010110001010 "
b11000011100101000010000011000 p
16"
b1 ?"
b1 H"
#510
b10001010100011010010011010001000 "
b10000100000110000111001010000100 p
#511
b101010100011001000111100101000 "
b1110010100001000001100001110010 p
18"
b10 H"
#512
b10010000001001101000111010010001 "
b11000011100101000010000011000 I
b1111 i
1m
06"
08"
b1 <"
b0 ?"
b1 E"
b0 H"
1K"
#513
b10001111100101010010101110001010 "
b10000100000110000111001010000100 I
b11011011101101000011000011011 p
16"
b1 ?"
b1 H"
#514
b101000100010101001000000100110 "
b1110010100001000001100001110010 I
1o
06"
b0 ?"
b10 E"
b0 H"
#515
b10001100001000011000110010010010 "
0m
b0 <"
b0 E"
#516
b10001010100011010010010010001001 "
b11011011101101000011000011011 I
1m
0o
b10000110000110110111011010000110 p
16"
b1 <"
b1 ?"
b1 E"
b1 H"
#517
b101011100010011000101100101010 "
0G
0m
0n
b1110110100001100001101101110110 p
18"
b0 9"
b0 <"
b0 B"
b0 E"
b10 H"
#518
06"
08"
b0 ?"
b0 H"
#519
1G
b10000110000110110111011010000110 I
1m
b100010100000101000101100100010 p
16"
b1 9"
b1 ?"
b1 B"
b1 H"
#520
b10001000001011011000100010001001 "
06"
b0 ?"
b0 H"
#521
b10000011100010000010110010000101 "
0G
b0 9"
b0 B"
#522
b10001011001000101000001010001011 p
16"
b1 ?"
b1 H"
#523
b10000010100010110010001010000010 p
18"
b10 H"
#524
06"
08"
b0 ?"
b0 H"
#525
b100011100001011000101000100011 p
16"
b1 ?"
b1 H"
#526
1G
06"
b1 9"
b0 ?"
b1 B"
b0 H"
#527
b101100100000101000011100101101 "
0G
b0 9"
b0 B"
#528
b10001010001000111000010110001010 p
16"
b1 ?"
b1 H"
#529
b10000101100010100010001110000101 p
18"
b10 H"
#530
06"
08"
b0 ?"
b0 H"
#531
1G
b100110100010101000110100100110 p
16"
b1 9"
b1 ?"
b1 B"
b1 H"
#532
b10000101001011000111111010000111 "
06"
b0 ?"
b0 H"
#533
b1111000100001010010101101111100 "
0G
b0 9"
b0 B"
#534
b10001101001001101000101010001101 p
16"
b1 ?"
b1 H"
#535
b10001010100011010010011010001010 p
18"
b10 H"
#536
06"
08"
b0 ?"
b0 H"
#537
b101010100011101001000100101010 p
16"
b1 ?"
b1 H"
#538
1G
06"
b1 9"
b0 ?"
b1 B"
b0 H"
#539
b100111011110111000100000101100 "
0G
b0 9"
b0 B"
#540
b10010001001010101000111010010001 p
16"
b1 ?"
b1 H"
#541
b10001110100100010010101010001110 p
18"
b10 H"
#542
06"
08"
b0 ?"
b0 H"
#543
1G
b101011100011111001010100101011 p
16"
b1 9"
b1 ?"
b1 B"
b1 H"
#544
b10000110001001100111011110000110 "
06"
b0 ?"
b0 H"
#545
b1110100100001100010001001110101 "
0G
b0 9"
b0 B"
#546
b10010101001010111000111110010101 p
16"
b1 ?"
b1 H"
#547
b10001111100101010010101110001111 p
18"
b10 H"
#548
06"
08"
b0 ?"
b0 H"
#549
b101000100011001001001000101000 p
16"
b1 ?"
b1 H"
#550
1G
06"
b1 9"
b0 ?"
b1 B"
b0 H"
#551
b11100011100011000011000011111 "
0G
b0 9"
b0 B"
#552
b10010010001010001000110010010010 p
16"
b1 ?"
b1 H"
#553
b10001100100100100010100010001100 p
18"
b10 H"
#554
06"
08"
b0 ?"
b0 H"
#555
1G
b100100100010101000110100100100 p
16"
b1 9"
b1 ?"
b1 B"
b1 H"
#556
b10000111000110110111000010000101 "
06"
b0 ?"
b0 H"
#557
b1110001100010000001110001110000 "
0G
b0 9"
b0 B"
#558
b10001101001001001000101010001101 p
16"
b1 ?"
b1 H"
#559
b10001010100011010010010010001010 p
18"
b10 H"
#560
06"
08"
b0 ?"
b0 H"
#561
b101011100010001000100100101011 p
16"
b1 ?"
b1 H"
#562
1G
06"
b1 9"
b0 ?"
b1 B"
b0 H"
#563
b11010011110011000110000100000 "
0G
b0 9"
b0 B"
#564
b10001001001010111000100010001001 p
16"
b1 ?"
b1 H"
#565
b10001000100010010010101110001000 p
18"
b10 H"
#566
06"
08"
b0 ?"
b0 H"
#567
1G
b101100100000111000100000101100 p
16"
b1 9"
b1 ?"
b1 B"
b1 H"
#568
b10001011000111010111001110000110 "
06"
b0 ?"
b0 H"
#569
b1111010100011000001111001111001 "
0G
b0 9"
b0 B"
#570
b10001000001011001000001110001000 p
16"
b1 ?"
b1 H"
#571
b10000011100010000010110010000011 p
18"
b10 H"
#572
06"
08"
b0 ?"
b0 H"
#573
b101100011111101000011100101100 p
16"
b1 ?"
b1 H"
#574
1G
06"
b1 9"
b0 ?"
b1 B"
b0 H"
#575
b11000100000001001000100100001 "
0G
b0 9"
b0 B"
#576
b10000111001011000111111010000111 p
16"
b1 ?"
b1 H"
#577
b1111110100001110010110001111110 p
18"
b10 H"
#578
06"
08"
b0 ?"
b0 H"
#579
1G
b101011011110001000010100101011 p
16"
b1 9"
b1 ?"
b1 B"
b1 H"
#580
b10001101000111000111011110001000 "
06"
b0 ?"
b0 H"
#581
b10000101100100110010000101111111 "
0G
b0 9"
b0 B"
#582
b10000101001010110111100010000101 p
16"
b1 ?"
b1 H"
#583
b1111000100001010010101101111000 p
18"
b10 H"
#584
06"
08"
b0 ?"
b0 H"
#585
b100111011101111000011000100111 p
16"
b1 ?"
b1 H"
#586
1G
06"
b1 9"
b0 ?"
b1 B"
b0 H"
#587
b11100100010011001001100100010 "
0G
b0 9"
b0 B"
#588
b10000110001001110111011110000110 p
16"
b1 ?"
b1 H"
#589
b1110111100001100010011101110111 p
18"
b10 H"
#590
06"
08"
b0 ?"
b0 H"
#591
1G
b100010011101001000011000100010 p
16"
b1 9"
b1 ?"
b1 B"
b1 H"
#592
b10010001000111011000010110001111 "
06"
b0 ?"
b0 H"
#593
b10001100100100110001111110001010 "
0G
b0 9"
b0 B"
#594
b10000110001000100111010010000110 p
16"
b1 ?"
b1 H"
#595
b1110100100001100010001001110100 p
18"
b10 H"
#596
06"
08"
b0 ?"
b0 H"
#597
b11100011100001000010100011100 p
16"
b1 ?"
b1 H"
#598
1G
06"
b1 9"
b0 ?"
b1 B"
b0 H"
#599
b11101100011001000111100011010 "
0G
b0 9"
b0 B"
#600
b10000101000111000111000010000101 p
16"
b1 ?"
b1 H"
#601
b1110000100001010001110001110000 p
18"
b10 H"
#602
06"
08"
b0 ?"
b0 H"
#603
1G
b11100011100011000100000011100 p
16"
b1 9"
b1 ?"
b1 B"
b1 H"
#604
b10011000001000011000111110010010 "
06"
b0 ?"
b0 H"
#605
b10010100100110000010000010010111 "
0G
b0 9"
b0 B"
#606
b10001000000111000111000110001000 p
16"
b1 ?"
b1 H"
#607
b1110001100010000001110001110001 p
18"
b10 H"
#608
06"
08"
b0 ?"
b0 H"
#609
b11010011100111000011000011010 p
16"
b1 ?"
b1 H"
#610
1G
06"
b1 9"
b0 ?"
b1 B"
b0 H"
#611
b100110100110111001111000101011 "
0G
b0 9"
b0 B"
#612
b10000110000110100111001110000110 p
16"
b1 ?"
b1 H"
#613
b1110011100001100001101001110011 p
18"
b10 H"
#614
06"
08"
b0 ?"
b0 H"
#615
1G
b11110011110101000110000011110 p
16"
b1 9"
b1 ?"
b1 B"
b1 H"
#616
b10010100001000111001010110011010 "
06"
b0 ?"
b0 H"
#617
b10010100100110000010011110010000 "
0G
b0 9"
b0 B"
#618
b10001100000111100111101010001100 p
16"
b1 ?"
b1 H"
#619
b1111010100011000001111001111010 p
18"
b10 H"
#620
06"
08"
b0 ?"
b0 H"
#621
b11000011101111000100000011000 p
16"
b1 ?"
b1 H"
#622
1G
06"
b1 9"
b0 ?"
b1 B"
b0 H"
#623
b100101100110101001110000101110 "
0G
b0 9"
b0 B"
#624
b10001000000110000111011110001000 p
16"
b1 ?"
b1 H"
#625
b1110111100010000001100001110111 p
18"
b10 H"
#626
06"
08"
b0 ?"
b0 H"
#627
1G
b100001100001011001001100100001 p
16"
b1 9"
b1 ?"
b1 B"
b1 H"
#628
b10001101001000001001000110010011 "
06"
b0 ?"
b0 H"
#629
b10010000100101000010011010001011 "
0G
b0 9"
b0 B"
#630
b10010011001000011000010110010011 p
16"
b1 ?"
b1 H"
#631
b10000101100100110010000110000101 p
18"
b10 H"
#632
06"
08"
b0 ?"
b0 H"
#633
b11100100001011000111100011100 p
16"
b1 ?"
b1 H"
#634
1G
06"
b1 9"
b0 ?"
b1 B"
b0 H"
#635
b101000100011111001001000101001 "
0G
b0 9"
b0 B"
#636
b10001111000111001000010110001111 p
16"
b1 ?"
b1 H"
#637
b10000101100011110001110010000101 p
18"
b10 H"
#638
06"
08"
b0 ?"
b0 H"
#639
1G
b11111100011001001001100011111 p
16"
b1 9"
b1 ?"
b1 B"
b1 H"
#640
b10001111001001111000101110010010 "
06"
b0 ?"
b0 H"
#641
b10000011100011100010010110001000 "
0G
b0 9"
b0 B"
#642
b10010011000111111000110010010011 p
16"
b1 ?"
b1 H"
#643
b10001100100100110001111110001100 p
18"
b10 H"
#644
06"
08"
b0 ?"
b0 H"
#645
b11101100011111001001000011101 p
16"
b1 ?"
b1 H"
#646
1G
06"
b1 9"
b0 ?"
b1 B"
b0 H"
#647
b100101100000011000111000100101 "
0G
b0 9"
b0 B"
#648
b10010010000111011000111110010010 p
16"
b1 ?"
b1 H"
#649
b10001111100100100001110110001111 p
18"
b10 H"
#650
06"
08"
b0 ?"
b0 H"
#651
1G
b100000100101001001100000100000 p
16"
b1 9"
b1 ?"
b1 B"
b1 H"
#652
b10001111001001110111111010001111 "
06"
b0 ?"
b0 H"
#653
b1111010100011110010100001111110 "
0G
b0 9"
b0 B"
#654
b10011000001000001001010010011000 p
16"
b1 ?"
b1 H"
#655
b10010100100110000010000010010100 p
18"
b10 H"
#656
06"
08"
b0 ?"
b0 H"
#657
b100110100101011001101000100110 p
16"
b1 ?"
b1 H"
#658
1G
06"
b1 9"
b0 ?"
b1 B"
b0 H"
#659
b101000011101001000100000100101 "
0G
b0 9"
b0 B"
#660
b10011010001001101001010110011010 p
16"
b1 ?"
b1 H"
#661
b10010101100110100010011010010101 p
18"
b10 H"
#662
06"
08"
b0 ?"
b0 H"
#663
1G
b100111100101001001100000100111 p
16"
b1 9"
b1 ?"
b1 B"
b1 H"
#664
b10001001001001110111010010001010 "
06"
b0 ?"
b0 H"
#665
b1110011100011010010101001110001 "
0G
b0 9"
b0 B"
#666
b10011000001001111001010010011000 p
16"
b1 ?"
b1 H"
#667
b10010100100110000010011110010100 p
18"
b10 H"
#668
06"
08"
b0 ?"
b0 H"
#669
b100101100100011001001100100101 p
16"
b1 ?"
b1 H"
#670
1G
06"
b1 9"
b0 ?"
b1 B"
b0 H"
#671
b101100011010101000010000100011 "
0G
b0 9"
b0 B"
#672
b10010011001001011001000110010011 p
16"
b1 ?"
b1 H"
#673
b10010001100100110010010110010001 p
18"
b10 H"
#674
06"
08"
b0 ?"
b0 H"
#675
1G
b100110100100001001010000100110 p
16"
b1 9"
b1 ?"
b1 B"
b1 H"
#676
b10001101001010110111000010001110 "
06"
b0 ?"
b0 H"
#677
b1101001100010010010011001101111 "
0G
b0 9"
b0 B"
#678
b10010100001001101001000010010100 p
16"
b1 ?"
b1 H"
#679
b10010000100101000010011010010000 p
18"
b10 H"
#680
06"
08"
b0 ?"
b0 H"
#681
b101000100010111001001000101000 p
16"
b1 ?"
b1 H"
#682
1G
06"
b1 9"
b0 ?"
b1 B"
b0 H"
#683
b100111011001111000100100101000 "
0G
b0 9"
b0 B"
#684
b10010010001010001000101110010010 p
16"
b1 ?"
b1 H"
#685
b10001011100100100010100010001011 p
18"
b10 H"
#686
06"
08"
b0 ?"
b0 H"
#687
1G
b100101100000111000111000100101 p
16"
b1 9"
b1 ?"
b1 B"
b1 H"
#688
b10001011001010010110011010001000 "
06"
b0 ?"
b0 H"
#689
b1101000100011000010101001100111 "
0G
b0 9"
b0 B"
#690
b10001110001001011000001110001110 p
16"
b1 ?"
b1 H"
#691
b10000011100011100010010110000011 p
18"
b10 H"
#692
06"
08"
b0 ?"
b0 H"
#693
b100101011111101000111100100101 p
16"
b1 ?"
b1 H"
#694
1G
06"
b1 9"
b0 ?"
b1 B"
b0 H"
#695
b101111011001111000101100101011 "
0G
b0 9"
b0 B"
#696
b10001111001001010111111010001111 p
16"
b1 ?"
b1 H"
#697
b1111110100011110010010101111110 p
18"
b10 H"
#698
06"
08"
b0 ?"
b0 H"
#699
1G
b101000011110101000111100101000 p
16"
b1 9"
b1 ?"
b1 B"
b1 H"
#700
b10001111001011110110101110001111 "
06"
b0 ?"
b0 H"
#701
b1100100100010100010011101101011 "
0G
b0 9"
b0 B"
#702
b10001111001010000111101010001111 p
16"
b1 ?"
b1 H"
#703
b1111010100011110010100001111010 p
18"
b10 H"
#704
06"
08"
b0 ?"
b0 H"
#705
b101000011101001000101000101000 p
16"
b1 ?"
b1 H"
#706
1G
06"
b1 9"
b0 ?"
b1 B"
b0 H"
#707
b101010011011001001010000110001 "
0G
b0 9"
b0 B"
#708
b10001010001010000111010010001010 p
16"
b1 ?"
b1 H"
#709
b1110100100010100010100001110100 p
18"
b10 H"
#710
06"
08"
b0 ?"
b0 H"
#711
1G
b101010011100111000110100101010 p
16"
b1 9"
b1 ?"
b1 B"
b1 H"
#712
b10001010001000100110100010010011 "
06"
b0 ?"
b0 H"
#713
b1100100100011100010001001100001 "
0G
b0 9"
b0 B"
#714
b10001101001010100111001110001101 p
16"
b1 ?"
b1 H"
#715
b1110011100011010010101001110011 p
18"
b10 H"
#716
06"
08"
b0 ?"
b0 H"
#717
b101100011100001000111000101100 p
16"
b1 ?"
b1 H"
#718
1G
06"
b1 9"
b0 ?"
b1 B"
b0 H"
#719
b11110011001011000111100100011 "
0G
b0 9"
b0 B"
#720
b10001110001011000111000010001110 p
16"
b1 ?"
b1 H"
#721
b1110000100011100010110001110000 p
18"
b10 H"
#722
06"
08"
b0 ?"
b0 H"
#723
1G
b100110011010011000100100100110 p
16"
b1 9"
b1 ?"
b1 B"
b1 H"
#724
b10010011001000110110010010001110 "
06"
b0 ?"
b0 H"
#725
b1101011100100110010000101101011 "
0G
b0 9"
b0 B"
#726
b10001001001001100110100110001001 p
16"
b1 ?"
b1 H"
#727
b1101001100010010010011001101001 p
18"
b10 H"
#728
06"
08"
b0 ?"
b0 H"
#729
b100111011001101000100000100111 p
16"
b1 ?"
b1 H"
#730
1G
06"
b1 9"
b0 ?"
b1 B"
b0 H"
#731
b100000011101011001110100101010 "
0G
b0 9"
b0 B"
#732
b10001000001001110110011010001000 p
16"
b1 ?"
b1 H"
#733
b1100110100010000010011101100110 p
18"
b10 H"
#734
06"
08"
b0 ?"
b0 H"
#735
1G
b101010011010001000110000101010 p
16"
b1 9"
b1 ?"
b1 B"
b1 H"
#736
b10010111001001000110101110010011 "
06"
b0 ?"
b0 H"
#737
b1111001101000010010111001101111 "
0G
b0 9"
b0 B"
#738
b10001100001010100110100010001100 p
16"
b1 ?"
b1 H"
#739
b1101000100011000010101001101000 p
18"
b10 H"
#740
06"
08"
b0 ?"
b0 H"
#741
b101111011010111000111100101111 p
16"
b1 ?"
b1 H"
#742
1G
06"
b1 9"
b0 ?"
b1 B"
b0 H"
#743
b100110011101011001110100101011 "
0G
b0 9"
b0 B"
#744
b10001111001011110110101110001111 p
16"
b1 ?"
b1 H"
#745
b1101011100011110010111101101011 p
18"
b10 H"
#746
06"
08"
b0 ?"
b0 H"
#747
1G
b100111011001001000101000100111 p
16"
b1 9"
b1 ?"
b1 B"
b1 H"
#748
b10011011001010010111000010011000 "
06"
b0 ?"
b0 H"
#749
b1111000100111010010110001110011 "
0G
b0 9"
b0 B"
#750
b10001010001001110110010010001010 p
16"
b1 ?"
b1 H"
#751
b1100100100010100010011101100100 p
18"
b10 H"
#752
06"
08"
b0 ?"
b0 H"
#753
b101010011010001001001100101010 p
16"
b1 ?"
b1 H"
#754
1G
06"
b1 9"
b0 ?"
b1 B"
b0 H"
#755
b110001011111101001100100110000 "
0G
b0 9"
b0 B"
#756
b10010011001010100110100010010011 p
16"
b1 ?"
b1 H"
#757
b1101000100100110010101001101000 p
18"
b10 H"
#758
06"
08"
b0 ?"
b0 H"
#759
1G
b100010011001001000111000100010 p
16"
b1 9"
b1 ?"
b1 B"
b1 H"
#760
b10011100001101001000001010011001 "
06"
b0 ?"
b0 H"
#761
b1111110100101010010110110000101 "
0G
b0 9"
b0 B"
#762
b10001110001000100110010010001110 p
16"
b1 ?"
b1 H"
#763
b1100100100011100010001001100100 p
18"
b10 H"
#764
06"
08"
b0 ?"
b0 H"
#765
b11110011001001000111000011110 p
16"
b1 ?"
b1 H"
#766
1G
06"
b1 9"
b0 ?"
b1 B"
b0 H"
#767
b110011100000101001100000110011 "
0G
b0 9"
b0 B"
#768
b10001110000111100110010010001110 p
16"
b1 ?"
b1 H"
#769
b1100100100011100001111001100100 p
18"
b10 H"
#770
06"
08"
b0 ?"
b0 H"
#771
1G
b100001011010111001001100100001 p
16"
b1 9"
b1 ?"
b1 B"
b1 H"
#772
b10011011001101101000001010011000 "
06"
b0 ?"
b0 H"
#773
b10000001100101110011001010000101 "
0G
b0 9"
b0 B"
#774
b10010011001000010110101110010011 p
16"
b1 ?"
b1 H"
#775
b1101011100100110010000101101011 p
18"
b10 H"
#776
06"
08"
b0 ?"
b0 H"
#777
b100000011010111001001100100000 p
16"
b1 ?"
b1 H"
#778
1G
06"
b1 9"
b0 ?"
b1 B"
b0 H"
#779
b111010011111101001010000110000 "
0G
b0 9"
b0 B"
#780
b10010011001000000110101110010011 p
16"
b1 ?"
b1 H"
#781
b1101011100100110010000001101011 p
18"
b10 H"
#782
06"
08"
b0 ?"
b0 H"
#783
1G
b101110011110011010000100101110 p
16"
b1 9"
b1 ?"
b1 B"
b1 H"
#784
b10011010001110001000100010011110 "
06"
b0 ?"
b0 H"
#785
b10000101100110110011100110000100 "
0G
b0 9"
b0 B"
#786
b10100001001011100111100110100001 p
16"
b1 ?"
b1 H"
#787
b1111001101000010010111001111001 p
18"
b10 H"
#788
06"
08"
b0 ?"
b0 H"
#789
b100110011100001001100000100110 p
16"
b1 ?"
b1 H"
#790
1G
06"
b1 9"
b0 ?"
b1 B"
b0 H"
#791
b1000000100011011010000101000000 "
0G
b0 9"
b0 B"
#792
b10011000001001100111000010011000 p
16"
b1 ?"
b1 H"
#793
b1110000100110000010011001110000 p
18"
b10 H"
#794
06"
08"
b0 ?"
b0 H"
#795
1G
b101100011110001001110100101100 p
16"
b1 9"
b1 ?"
b1 B"
b1 H"
#796
b10100011010001001000110110100001 "
06"
b0 ?"
b0 H"
#797
b10010010101001100100011110001111 "
0G
b0 9"
b0 B"
#798
b10011101001011000111100010011101 p
16"
b1 ?"
b1 H"
#799
b1111000100111010010110001111000 p
18"
b10 H"
#800
06"
08"
b0 ?"
b0 H"
#801
b110001100000101001100100110001 p
16"
b1 ?"
b1 H"
#802
1G
06"
b1 9"
b0 ?"
b1 B"
b0 H"
#803
b1000111100011101010001101000110 "
0G
b0 9"
b0 B"
#804
b10011001001100011000001010011001 p
16"
b1 ?"
b1 H"
#805
b10000010100110010011000110000010 p
18"
b10 H"
#806
06"
08"
b0 ?"
b0 H"
#807
1G
b101101011111101001010100101101 p
16"
b1 9"
b1 ?"
b1 B"
b1 H"
#808
b10100110010010111000111110100100 "
06"
b0 ?"
b0 H"
#809
b10010011101010000100110110010001 "
0G
b0 9"
b0 B"
#810
b10010101001011010111111010010101 p
16"
b1 ?"
b1 H"
#811
b1111110100101010010110101111110 p
18"
b10 H"
#812
06"
08"
b0 ?"
b0 H"
#813
b110011100000101001100000110011 p
16"
b1 ?"
b1 H"
#814
1G
06"
b1 9"
b0 ?"
b1 B"
b0 H"
#815
b1001011100100101010011001001101 "
0G
b0 9"
b0 B"
#816
b10011000001100111000001010011000 p
16"
b1 ?"
b1 H"
#817
b10000010100110000011001110000010 p
18"
b10 H"
#818
06"
08"
b0 ?"
b0 H"
#819
1G
b110010100000011001011100110010 p
16"
b1 9"
b1 ?"
b1 B"
b1 H"
#820
b10100111010011001001000010100100 "
06"
b0 ?"
b0 H"
#821
b10010110101010110101000010010010 "
0G
b0 9"
b0 B"
#822
b10010111001100101000000110010111 p
16"
b1 ?"
b1 H"
#823
b10000001100101110011001010000001 p
18"
b10 H"
#824
06"
08"
b0 ?"
b0 H"
#825
b111010100010001001111000111010 p
16"
b1 ?"
b1 H"
#826
1G
06"
b1 9"
b0 ?"
b1 B"
b0 H"
#827
b1001110100101011010101001001111 "
0G
b0 9"
b0 B"
#828
b10011110001110101000100010011110 p
16"
b1 ?"
b1 H"
#829
b10001000100111100011101010001000 p
18"
b10 H"
#830
06"
08"
b0 ?"
b0 H"
#831
1G
b111001100001011001101100111001 p
16"
b1 9"
b1 ?"
b1 B"
b1 H"
#832
b10110000010110001001010010101001 "
06"
b0 ?"
b0 H"
#833
b10011001101011110101101010011001 "
0G
b0 9"
b0 B"
#834
b10011011001110011000010110011011 p
16"
b1 ?"
b1 H"
#835
b10000101100110110011100110000101 p
18"
b10 H"
#836
06"
08"
b0 ?"
b0 H"
#837
b1000000100011011010000101000000 p
16"
b1 ?"
b1 H"
#838
1G
06"
b1 9"
b0 ?"
b1 B"
b0 H"
#839
b1100110101000101011011101101000 "
0G
b0 9"
b0 B"
#840
b10100001010000001000110110100001 p
16"
b1 ?"
b1 H"
#841
b10001101101000010100000010001101 p
18"
b10 H"
#842
06"
08"
b0 ?"
b0 H"
#843
1G
b1000111100100101010011001000111 p
16"
b1 9"
b1 ?"
b1 B"
b1 H"
#844
b10110100011011011001110010110001 "
06"
b0 ?"
b0 H"
#845
b10100010101100100111000110100000 "
0G
b0 9"
b0 B"
#846
b10100110010001111001001010100110 p
16"
b1 ?"
b1 H"
#847
b10010010101001100100011110010010 p
18"
b10 H"
#848
06"
08"
b0 ?"
b0 H"
#849
b1000111100011111010010001000111 p
16"
b1 ?"
b1 H"
#850
1G
06"
b1 9"
b0 ?"
b1 B"
b0 H"
#851
b1110110101010001011000001110100 "
0G
b0 9"
b0 B"
#852
b10100100010001111000111110100100 p
16"
b1 ?"
b1 H"
#853
b10001111101001000100011110001111 p
18"
b10 H"
#854
06"
08"
b0 ?"
b0 H"
#855
1G
b1001101100100111010100001001101 p
16"
b1 9"
b1 ?"
b1 B"
b1 H"
#856
b10110001011110111010101110110000 "
06"
b0 ?"
b0 H"
#857
b10101101101100010111111010101100 "
0G
b0 9"
b0 B"
#858
b10101000010011011001001110101000 p
16"
b1 ?"
b1 H"
#859
b10010011101010000100110110010011 p
18"
b10 H"
#860
06"
08"
b0 ?"
b0 H"
#861
b1001011100100001010010001001011 p
16"
b1 ?"
b1 H"
#862
1G
06"
b1 9"
b0 ?"
b1 B"
b0 H"
#863
b10000000101010011011000001111101 "
0G
b0 9"
b0 B"
#864
b10100100010010111001000010100100 p
16"
b1 ?"
b1 H"
#865
b10010000101001000100101110010000 p
18"
b10 H"
#866
06"
08"
b0 ?"
b0 H"
#867
1G
b1010000100101101010101101010000 p
16"
b1 9"
b1 ?"
b1 B"
b1 H"
#868
b10101110100001001010100010101110 "
06"
b0 ?"
b0 H"
#869
b10100111101011101000010110100111 "
0G
b0 9"
b0 B"
#870
b10101011010100001001011010101011 p
16"
b1 ?"
b1 H"
#871
b10010110101010110101000010010110 p
18"
b10 H"
#872
06"
08"
b0 ?"
b0 H"
#873
b1001110100101001010100101001110 p
16"
b1 ?"
b1 H"
#874
1G
06"
b1 9"
b0 ?"
b1 B"
b0 H"
#875
b10001001101010101011001010001011 "
0G
b0 9"
b0 B"
#876
b10101001010011101001010010101001 p
16"
b1 ?"
b1 H"
#877
b10010100101010010100111010010100 p
18"
b10 H"
#878
06"
08"
b0 ?"
b0 H"
#879
1G
b1011010100110011010111101011010 p
16"
b1 9"
b1 ?"
b1 B"
b1 H"
#880
b10101010100001011010100010110000 "
06"
b0 ?"
b0 H"
#881
b10011111101010011000010010100000 "
0G
b0 9"
b0 B"
#882
b10101111010110101001100110101111 p
16"
b1 ?"
b1 H"
#883
b10011001101011110101101010011001 p
18"
b10 H"
#884
06"
08"
b0 ?"
b0 H"
#885
b1100110100111001011000101100110 p
16"
b1 ?"
b1 H"
#886
1G
06"
b1 9"
b0 ?"
b1 B"
b0 H"
#887
b10000011101000011010110010000100 "
0G
b0 9"
b0 B"
#888
b10110001011001101001110010110001 p
16"
b1 ?"
b1 H"
#889
b10011100101100010110011010011100 p
18"
b10 H"
#890
06"
08"
b0 ?"
b0 H"
#891
1G
b1110001101000101011001001110001 p
16"
b1 9"
b1 ?"
b1 B"
b1 H"
#892
b10101010011111111010000010101011 "
06"
b0 ?"
b0 H"
#893
b10100001101011011000010110011101 "
0G
b0 9"
b0 B"
#894
b10110010011100011010001010110010 p
16"
b1 ?"
b1 H"
#895
b10100010101100100111000110100010 p
18"
b10 H"
#896
06"
08"
b0 ?"
b0 H"
#897
b1110110101010111011000001110110 p
16"
b1 ?"
b1 H"
#898
1G
06"
b1 9"
b0 ?"
b1 B"
b0 H"
#899
b10001111101001001011001110001100 "
0G
b0 9"
b0 B"
#900
b10110000011101101010101110110000 p
16"
b1 ?"
b1 H"
#901
b10101011101100000111011010101011 p
18"
b10 H"
#902
06"
08"
b0 ?"
b0 H"
#903
1G
b1111110101011011011000101111110 p
16"
b1 9"
b1 ?"
b1 B"
b1 H"
#904
b10110001100011011010010110110011 "
06"
b0 ?"
b0 H"
#905
b10100000101011101000101010100011 "
0G
b0 9"
b0 B"
#906
b10110001011111101010110110110001 p
16"
b1 ?"
b1 H"
#907
b10101101101100010111111010101101 p
18"
b10 H"
#908
06"
08"
b0 ?"
b0 H"
#909
b10000000101010001010111010000000 p
16"
b1 ?"
b1 H"
#910
1G
06"
b1 9"
b0 ?"
b1 B"
b0 H"
#911
b10001101101000011011000110001100 "
0G
b0 9"
b0 B"
#912
b10101110100000001010100010101110 p
16"
b1 ?"
b1 H"
#913
b10101000101011101000000010101000 p
18"
b10 H"
#914
06"
08"
b0 ?"
b0 H"
#915
1G
b10000101101001111010111010000101 p
16"
b1 9"
b1 ?"
b1 B"
b1 H"
#916
b10101111100001111010001010110010 "
06"
b0 ?"
b0 H"
#917
b10010101101001110111111110011101 "
0G
b0 9"
b0 B"
#918
b10101110100001011010011110101110 p
16"
b1 ?"
b1 H"
#919
b10100111101011101000010110100111 p
18"
b10 H"
#920
06"
08"
b0 ?"
b0 H"
#921
b10001001101010001011000010001001 p
16"
b1 ?"
b1 H"
#922
1G
06"
b1 9"
b0 ?"
b1 B"
b0 H"
#923
b10000000100101001010100101111110 "
0G
b0 9"
b0 B"
#924
b10110000100010011010100010110000 p
16"
b1 ?"
b1 H"
#925
b10101000101100001000100110101000 p
18"
b10 H"
#926
06"
08"
b0 ?"
b0 H"
#927
1G
b10000100100111111010100110000100 p
16"
b1 9"
b1 ?"
b1 B"
b1 H"
#928
b10101011011111111001011010101011 "
06"
b0 ?"
b0 H"
#929
b10001111101001100111101010010100 "
0G
b0 9"
b0 B"
#930
b10101001100001001001111110101001 p
16"
b1 ?"
b1 H"
